                                      Hcue Test 2                                              
                                   54, thiyagaraya st                                          
                           DL No   : PPPPPTTT / GSTIN :98596                                  
                               Stock Report - Batch Wise                                      
                                                                                               
----------------------------------------------------------------------------------------------
S.No    Product              Batch Exp   Cate   MFR  RackNo BoxNo   Stock MRP/Str   Cost Value 
----------------------------------------------------------------------------------------------
1       {DOLO               12    12/56 POWDE  SANO 212345615425      12      12            11
2       21NEURABOL 1ML       12    12/56 POWDE  phar 1256432zxc12     153      20           115
3       3 WAY STOPCOCK BI-VA 323   01/22                0   0           4     200           251
4       4 QUIN 5GM EYE OINT  SQ05  01/19                0   0           2     157           141
5       6 MP 50MG TAB        07476 01/19                0   0          50     391          9333
6       8 X -SHAMPOO         80063 01/19 10     CIPL    0   0           2     547           475
7       A                    4     12/56 2       5     8p   5p          6      22             4
8       A                    aaa   12/58 2       5     8p   5p         26      15           153
9       A                    66    12/19 2       5     8p   5p         41      21           233
10      A                    65    12/18 2       5     8p   5p         50      20           255
11      A                    65    12/18 2       5     8p   5p         50      20           263
12      A                    52    12/56 2       5     8p   5p          5     100             6
13      A                    65    12/18 2       5     8p   5p         29      20           344
14      A                    12    12/56 2       5     8p   5p        200      20           200
15      A                    4     12/56 2       5     8p   5p          6      22             5
16      A                    4     12/56 2       5     8p   5p          4      22             5
17      A C WOOL 200GM       17    01/20                0   0          13     248          1137
18      A CN  GEL            45    01/20 POWDE   0      2   2          45       7           133
19      A CN  GEL            12    12/56 POWDE   0      2   2           6      20            24
20      A CN  GEL            45    01/22 POWDE   0      2   2          47       7           139
21      A CN  GEL            12    12/56 POWDE   0      2   2         199      40           704
22      A DERMA FOAMING GEL` 12    12/56        ABBO   aa   aa          1       5             0
23      A FERITE TAB         12    12/66               12a  13a         2      56            38
24      A FERITE TAB         12    12/56               12a  13a         5      20            18
25      A FERITE TAB         12    12/56               12a  13a         4      20            16
26      A FERITE TAB         12    12/56               12a  13a         6      20            24
27      A O FORTE            12    12/56 38     DECC    1   2         517      20           463
28      A O FORTE            12    12/56 38     DECC    1   2         200      20           179
29      A TO Z DROPS         7036F 01/20 12     ALKE    0   0           1      35            16
30      A TO Z GOLD          0851D 01/19 12     ALKE    0   0          25     214          2426
31      A TO Z NS SYP 200ML  198GH 01/19                0   0           7     847          2686
32      A TO Z NS TAB        33038 01/19                0   0          55     291          7335
33      A TO Z NS TAB        33208 01/19                0   0          75     397         13499
34      A TO Z SYP           07103 01/20 12     ALKE    0   0           1     110            50
35      A TO Z-GOLD CAPS     12    12/56         j     15             197      25           465
36      AAPP1                10    10/22 a      kkk                   100      20           112
37      AASDS                ND395 02/22                0   o           6      26           112
38      AB FLO 100MG CAPS    17AJQ 01/19                0   0          20     195          1747
39      AB FLO 100MG CAPS    17AJQ 01/19                0   0          15     146           943
40      AB FLO 100MG CAPS    17AJQ 01/19                0   0          60     585         15095
41      AB FLO N TAB         7015L 01/19        LUPI    0   0          28     397          4780
42      AB PHYLLINE          S0192 01/19 38     SUN     0   0         100    1050         45629
43      AB PHYLLINE          S0169 01/19 38     SUN     0   0          30     315          4234
44      AB PHYLLINE          S0169 01/19 38     SUN     0   0          91     956         37785
45      AB PHYLLINE          S0224 01/20 38     SUN     0   0           4      38            67
46      AB PHYLLINE N TAB    S0004 01/19                0   0          26     387          4377
47      AB PHYLLINE SR 200   S0170 01/19                0   0          20     334          2903
48      AB PHYLLINE SR 200   S1754 01/19                0   0          45     752         14696
49      AB PHYLLINE SR 200   S1342 01/19                0   0          20     334          2903
50      AB PHYLLINE SYP      18396 01/19 38             0   0           5     575          1249
51      AB PHYLLINE SYP      89295 01/19 38             0   0           1     115            50
52      AB PHYLLINE SYP      98279 01/19 38             0   0           3     345           450
53      ABDOMINAL CORSET PLA 3     01/19                0   0           1     580           202
54      ABDOMINAL CORSET PLA 4     01/19                0   0           1     660           265
55      ABOCAL 500 MG TAB    C0317 01/19        ABBO    0   0         160    1055         73388
56      ABSOLUT 369          17001 01/19                0   0          10     174           780
57      ABSOLUT 3G           17042 01/19 12     PHAR    0   0          10     163           730
58      ABSOLUT 3G           17031 01/19 12     PHAR    0   0          10     163           730
59      ABSOLUT CAPS         17009 01/19 12     PHAR    0   0         100    1200         53757
60      ABSOLUT WOMAN        17025 01/22                0   0          20     306          2742
61      ABSOLUT WOMAN        17033 01/19        PHAR    0   0         100    1530         68547
62      ABZORB POWDER 100GM  17956 01/20                0   0           4     432           751
63      AC WOOL IP  100GM    10217 01/20                0   0           6     414           912
64      AC WOOL IP 200GM     17149 01/20                0   0           2     248           175
65      AC WOOL IP 200GM     17110 01/20                0   0           3     372           409
66      AC WOOL IP 25GM*16   08/17 01/20                0   0          16     320          1716
67      AC WOOL IP 25GM*16   18917 01/20                0   0          31     620          6442
68      AC WOOL IP 25GM*16   12217 01/20                0   0          10     200           696
69      AC WOOL IP 400GM     17132 01/20                0   0           1     202            74
70      AC WOOL IP 400GM     17132 01/20                0   0           2     404           289
71      AC WOOL IP 50GM      8417  01/20                0   0           8     288           828
72      AC WOOL IP 50GM      8417  01/20                0   0           6     216           458
73      AC WOOL IP 50GM      8417  01/20                0   0           3     108           111
74      ANAWIN HEAVY 5%      13129 04/19        SANO   a1   a8         25      25           575
75      APPLE JUICE DRINKJNM 5     12/23 m       nm                     1      50             3
76      APPP                 1236  12/35 okljm   j                      1      20             6
77      APPP                 1236  12/35 okljm   j                      8      20            47
78      ASDSA1               ND395 01/19                0   o           6      26           112
79      ASDSA10              T1612 01/19                0   o          10      23            17
80      ASDSA11              U1747 01/19                0   o           3      31            61
81      ASDSA12              17002 01/19                0   o          10      86            61
82      ASDSA13              FQ100 01/22                0   o          20      84           125
83      ASDSA14              66002 01/19                0   o          20      10            15
84      ASDSA15              058NB 01/20                0   o           2      81           114
85      ASDSA16              17020 01/19                0   o           5      50            39
86      ASDSA17              GQ071 01/19                0   o          40      46            64
87      ASDSA18              70734 01/20                0   o          15      18            12
88      ASDSA19              0733F 01/19                0   o          30     246           192
89      ASDSA2               NB057 01/19                0   o           6      17            75
90      ASDSA20              11001 01/22                0   o          15     133            99
91      ASDSA21              70033 01/20                0   o           2      75           105
92      ASDSA22              70005 01/22                0   o          15      97            67
93      ASDSA23              N684  01/19                0   o           1      88            64
94      ASDSA24              X0195 01/19                0   o           2      99           135
95      ASDSA25              60106 01/19                0   o           3      44            90
96      ASDSA26              71017 01/19                0   o          20     105           143
97      ASDSA27              71441 01/19                0   o          60     404           551
98      ASDSA28              1110K 01/19                0   o           1      68            46
99      ASDSA29              01398 01/20                0   o          20      37            49
100     ASDSA3               LA7EA 01/22                0   o          15     190           136
101     ASDSA30              P614  01/20                0   o           1       8             5
102     ASDSA4               A0103 01/19                0   o          30      29            42
103     ASDSA5               2D002 01/19                0   o          15      77            62
104     ASDSA6               T1361 01/20                0   o         200       4            28
105     ASDSA7               17113 01/19                0   o          30     318           228
106     ASDSA8               M110  01/19                0   o          30     147           107
107     ASDSA9               04473 01/20                0   o          60      32           137
108     BETNOVATE GM 20GM CR ND395 01/20                0   0           6      26           112
109     BETNOVATE SKIN CREAM NB057 01/20                0   1          15      17           186
110     BIFILAC-SACT         LA7EA 01/20                0   2          15     190           136
111     C111                 12    12/56 check  wdwd                  101      20           119
112     C111                 12    12/56 check  wdwd                   27      80           281
113     C111                 12    12/56 check  wdwd                   35      60           344
114     C122222              12    12/66 SYRUP  DOLP                  167       2            16
115     C567                 ND395 01/20                0   0           6      26           112
116     C568                 NB057 01/20                0   1           5      17            62
117     C569                 LA7EA 01/20                0   2          15     190           136
118     C570                 A0103 01/20                0   3          30      29            42
119     C571                 2D002 01/20                0   4          15      77            62
120     C572                 T1361 01/20                0   5         200       4            28
121     C573                 17113 01/20                0   6          30     318           228
122     C574                 M110  01/20                0   7          30     147           107
123     C575                 04473 01/20                0   8          60      32           137
124     C576                 T1612 01/20                0   9          10      23            17
125     C577                 U1747 01/20                0   10          3      31            61
126     C578                 17002 01/20                0   11         10      86            61
127     C579                 FQ100 01/20                0   12         20      84           125
128     C580                 66002 01/20                0   13         20      10            15
129     C581                 058NB 01/20                0   14          2      81           114
130     C582                 17020 01/20                0   15          5      50            39
131     C583                 GQ071 01/20                0   16         40      46            64
132     C584                 70734 01/20                0   17         15      18            12
133     C585                 0733F 01/20                0   18         30     246           192
134     C586                 11001 01/20                0   19         15     133            99
135     C587                 70033 01/20                0   20          2      75           105
136     C588                 70005 01/20                0   21         15      97            67
137     C589                 N684  01/20                0   22          1      88            67
138     C590                 X0195 01/20                0   23          2      99           135
139     C591                 60106 01/20                0   24          3      44            90
140     C592                 71017 01/20                0   25         20     105           143
141     C593                 71441 01/20                0   26         60     404           551
142     C594                 1110K 01/20                0   27          1      68            46
143     C595                 01398 01/20                0   28         20      37            49
144     C596                 P614  01/20                0   29          1       8             5
145     CATSEARCH            125   08/22 categ  SANO                   49       2             6
146     CC                   123   08/18               a2   a22        40      20           472
147     CC                   12    12/66               a2   a22         3       2             0
148     CC                   12    12/66               a2   a22         3       2             0
149     CETAPIN XR 500MG TAB A0103 01/20                0   3          30      29            42
150     CHECKING1            41    12/56 5      ALAR                  100      20           110
151     CPU111               123   08/18 a      ALAR                   10      20           118
152     CREMAFFIN PLUS(YELLO 12    12/56        DOLP  200ML             1      12            12
153     CREMAFFIN PLUS(YELLO 12    12/66        DOLP  200ML            99      12           117
154     CROCIN               44478 08/22 4      SMIT   77m  78m       164      30           342
155     CROCIN               125   08/22 4      SMIT   77m  78m       100       2            12
156     CROCIN TEST 100MG    123   08/18               a2   a22        48      20            57
157     CROCIN TEST 100MG    123   08/18               a2   a22       885      20          1044
158     CROCIN TEST 100MG    123   08/18               a2   a22       200      20           236
159     CROCIN TEST 100MG    123   08/18               a2   a22       100      20            24
160     CS                   123   08/18 38      0     a2   a22        10      20           118
161     D                    6     12/56 m       .     7o   9i         10      30            16
162     D                    12    12/66 m       .     7o   9i        199      40           704
163     D                    d1    12/19 m       .     7o   9i          3      50            20
164     D                    12    12/56 m       .     7o   9i        100      20           108
165     D 1000 CAL TABS      123   08/18               a2   a22       138      20           326
166     D 1000 CAL TABS      12    12/55               a2   a22        99      20           111
167     D 360 CAPS 4S        21313 12/25        TORR    5   5           9      20            11
168     D 360 CAPS 4S        212   12/44        TORR    5   5         216      20           139
169     D 360 CAPS 4S        212   12/44        TORR    5   5          39      20           468
170     D 360 CAPS 4S        212   12/44        TORR    5   5         220      20           142
171     D 500 CAL            85    12/56 38     ERIS    0   0         196      30           522
172     DASD                 123   08/22               aa1  11a       100      20           116
173     DEPLATT-75MG-TAB     2D002 01/20                0   4          15      77            62
174     DEXONA TABS          T1361 01/20                0   5         200       4            28
175     DFFGHJ               ND395 01/20                0   0           6      26           112
176     DIAVIT PLUS CAPS     17113 01/20                0   6          30     318           228
177     DOLO                 12    12/56               a2   a22       210      20           212
178     DOLO                 123   08/18               a2   a22       100      20           118
179     DOLO 650             123   08/18               a2   a22        47      20           111
180     DOLO 650             123   08/18               a2   a22        50      20           118
181     DOLO1111             12    12/56 d1111   j      2   2          43      20           147
182     DOLO1111             12    12/56 d1111   j      2   2          48      20           161
183     E 2 GEL              13    12/57 6      TAMI                  199      21           354
184     E 400 SOFTGEL        E40   02/19 38     NATU                  968    2100         81312
185     E 400 SOFTGEL        12    12/56 38     NATU                  200      40           672
186     E 400 SOFTGEL        E40   02/19 38     NATU                    2    2100           168
187     E 400 SOFTGEL        E40   02/19 38     NATU                  971    2100         81564
188     E10                  17113 03/22                0   o          90     318           685
189     E11                  M110  03/22                0   o          90     147           321
190     E12                  04473 03/22                0   o         180      32           412
191     E13                  T1612 03/22                0   o          30      23            50
192     E14                  U1747 03/22                0   o           9      31           184
193     E15                  17002 03/22                0   o          30      86           184
194     E16                  FQ100 03/22                0   o          60      84           374
195     E17                  66002 03/22                0   o          60      10            44
196     E18                  058NB 03/22                0   o           6      81           343
197     E19                  17020 03/22                0   o          15      50           117
198     E20                  GQ071 03/22                0   o         120      46           193
199     E21                  70734 03/22                0   o          45      18            37
200     E22                  0733F 03/22                0   o          90     246           577
201     E23                  11001 03/22                0   o          45     133           296
202     E24                  70033 03/22                0   o           6      75           314
203     E25                  70005 03/22                0   o          45      97           200
204     E26                  N684  03/22                0   o           3      88           192
205     E27                  X0195 03/22                0   o           6      99           405
206     E28                  60106 03/22                0   o           9      44           269
207     E29                  71017 03/22                0   o          60     105           430
208     E30                  71441 03/22                0   o         180     404          1652
209     E31                  1110K 03/22                0   o           3      68           138
210     E32                  01398 03/22                0   o          60      37           148
211     E33                  P614  03/22                0   o           3       8            15
212     E33ASFSAF            P614  03/22                0   o           1       8             5
213     E4                   ND395 02/22                0   o          18      26           337
214     E5                   NB057 03/22                0   o          18      17           224
215     E6                   LA7EA 03/22                0   o          45     190           409
216     E7                   A0103 03/22                0   o          90      29           127
217     E8                   2D002 03/22                0   o          45      77           185
218     E9                   T1361 03/22                0   o         600       4            85
219     F CET                F4    09/22 38     ORDA    1   2          55     820          3245
220     F CET                12    12/56 38     ORDA    1   2          50      20           115
221     F CET                12    12/56                               46      20           101
222     F CET                sfsdf 12/56                               10      20            11
223     F SAFE SOFTGEL CAPS  12    12/56        SUN     8   6     1999810    2000       2644749
224     F.D.CARE = (FERROCAR fsczx 12/56        WYTR    3   3           8       5             4
225     FEFOL CAP            M110  01/20                0   7          30     147           107
226     FRUSELAC TAB         04473 01/20                0   8          60      32           137
227     G 10 RAZOR           12    12/56 27     GENE                   20      20            53
228     G 10 RAZOR           12    12/56 27     GENE                   92      12            97
229     G 10 RAZOR           12    12/56 27     GENE                  200      40           672
230     G 32 100'S           125   12/56 35     ALAR                   41       2             7
231     G 32 50'S            854   12/56 35     ALAR                  599      20           390
232     H VIT TABS           12    12/66 12     SYST                  188      20           182
233     HGB1                 ND395 02/22                0   o           6      26           112
234     HGB10                T1612 03/22                0   o          60      23           100
235     HGB11                U1747 03/22                0   o          18      31           368
236     HGB12                17002 03/22                0   o          60      86           368
237     HGB13                FQ100 03/22                0   o         120      84           747
238     HGB14                66002 03/22                0   o         120      10            88
239     HGB15                058NB 03/22                0   o          12      81           686
240     HGB16                17020 03/22                0   o          30      50           235
241     HGB17                GQ071 03/22                0   o         240      46           386
242     HGB18                70734 03/22                0   o         105      18            87
243     HGB19                0733F 03/22                0   o         180     246          1155
244     HGB2                 NB057 03/22                0   o          42      17           522
245     HGB20                11001 03/22                0   o          90     133           591
246     HGB21                70033 03/22                0   o          14      75           734
247     HGB22                70005 03/22                0   o          90      97           401
248     HGB23                N684  03/22                0   o           7      88           448
249     HGB24                X0195 03/22                0   o          12      99           810
250     HGB25                60106 03/22                0   o          21      44           627
251     HGB26                71017 03/22                0   o         140     105          1002
252     HGB27                71441 03/22                0   o         420     404          3854
253     HGB28                1110K 03/22                0   o           6      68           277
254     HGB29                01398 03/22                0   o         120      37           297
255     HGB3                 LA7EA 03/22                0   o         105     190           955
256     HGB30                P614  03/22                0   o           6       8            31
257     HGB31                P614  03/22                0   o           6       8            31
258     HGB4                 A0103 03/22                0   o         180      29           255
259     HGB5                 2D002 03/22                0   o          90      77           369
260     HGB6                 T1361 03/22                0   o        1400       4           198
261     HGB7                 17113 03/22                0   o         180     318          1371
262     HGB8                 M110  03/22                0   o         210     147           749
263     HGB9                 04473 03/22                0   o         360      32           824
264     HUUU                 125   12/57 m      MEDL    2   2       19973      70         83887
265     I - GEST 200MG TAB   96    12/56                                3      99            34
266     I - GEST 200MG TAB   45    11/56                              490      30          1060
267     JACK SOAP            123   08/18               a2   a22       189      20           223
268     JACK SOAP            123   08/18               a2   a22       100      20           236
269     JACK SOAP            15cvx 12/56                                1      20            11
270     JACK SOAP            1457  12/56                              194      20           219
271     JACK SOAP            12    12/56                              134      22            26
272     JACK SOAP            15cvx 12/65                              299      22           626
273     JAI LIME SOAP        12    12/56 38     HIND                  100      10            94
274     JIIII                12    12/56 zzzz   DRJR    2   3          10      12             8
275     JOLO1111             12    12/54 d1111  DRJR    1   2          10       6            26
276     JOLO1111             12    12/54 d1111  DRJR    1   2          10       6            30
277     K 5 HAIR TINCTURE    11111 12/51               a2   a22       194      23           485
278     K 5 HAIR TINCTURE    123   08/18               a2   a22        99      20           234
279     K BIND POWDER        8927  11/22 38     ZYDU                   95     113          9500
280     K COR 5 20'S         12    12/56 38     MACL                  600      23           635
281     K COR10MG            123   11/22 38                           190      40           638
282     K GLIM 1MG           64646 02/20        BLUE                  188      20           419
283     K1                   12    12/22 SYRUP  SYST                  100      20           100
284     KJK                  sads  12/18 kj     kkk    78p  45p        10      20            12
285     L -NIT CAPS          123   08/18               a2   a22       379      20           894
286     L -NIT CAPS          123   12/56               a2   a22         3      20            18
287     L -NIT CAPS          125   12/56               a2   a22       144      15           112
288     L -NIT CAPS          1222  12/69               a2   a22       100      30           216
289     L -NIT CAPS          123   08/18               a2   a22       151      20            89
290     L -NIT CAPS          2     12/56               a2   a22        42      15            59
291     L -NIT CAPS          123   08/18               a2   a22         7      20            41
292     L -NIT CAPS          10    12/57               a2   a22      1394      20          3747
293     L -NIT CAPS          121   12/56               a2   a22        99      20           117
294     L -NIT CAPS          123   12/56               a2   a22         4      12             9
295     L -NIT CAPS          123   08/18               a2   a22       100      20           118
296     L -NIT CAPS          89899 12/56               a2   a22         6      33             3
297     L BEPLEX             45    12/56 12     ANGL                  566      20           539
298     LINCEF TABS          12    12/66                               98      20           116
299     LINCEF TABS          211   12/56                               11       2             1
300     LISTENTAB            12    12/56 6       6                     98      15           146
301     LOWBP                123   08/18               a2   a22         3      20             7
302     LOWBP                123   08/18               a2   a22       250      20           590
303     M CAL 500            ikjio 12/58 12     STED                 4151      21           216
304     M CAL 500            652   12/56 12     STED                    9       5            21
305     M CAL 500            125   04/57 12     STED                  250     201           470
306     M CAL 500            123   08/18 12     STED                   43      20           101
307     M CAM 15MG           12    08/22 5      UNIC                   10      39            35
308     M CAM 15MG           12    08/22 5      UNIC                  100      39           318
309     M CAM 15MG           12    12/55 5      UNIC                   97      10           109
310     M CAM 7.5MG          123   08/18 5      UNIC                   45      20           106
311     M CIN                1111  12/21        LUPI                 2200      50          2057
312     MCA123               12    12/56 .      KRON                   99      20           117
313     MEFTAL 250MG TAB**   T1612 01/20                0   9          10      23            17
314     MEFTAL P SUSPENSION- U1747 01/20                0   10          3      31            61
315     MNOP                 12    12/56 sugar  SURG                  120      60           320
316     MNOP                 12    12/56 sugar  SURG                  120      25           236
317     MNOP                 12    12/56 sugar  SURG                  120      25           200
318     NBH10                12    12/56                0   o         100      20           108
319     NBH10                T1361 01/20                0   o         208       4            29
320     NBH11                17113 01/19                0   o          30     318           228
321     NBH12                M110  01/19                0   o          30     147           107
322     NBH13                04473 01/20                0   o          60      32           137
323     NBH14                T1612 01/19                0   o          10      23            17
324     NBH15                U1747 01/19                0   o           3      31            61
325     NBH16                17002 01/19                0   o          10      86            61
326     NBH17                FQ100 01/22                0   o          20      84           125
327     NBH18                66002 01/19                0   o          20      10            15
328     NBH19                058NB 01/20                0   o           2      81           114
329     NBH20                17020 01/19                0   o           5      50            39
330     NBH21                GQ071 01/19                0   o          40      46            64
331     NBH22                70734 01/20                0   o          15      18            12
332     NBH23                0733F 01/19                0   o          30     246           192
333     NBH24                11001 01/22                0   o          15     133            99
334     NBH25                70033 01/20                0   o           2      75           105
335     NBH26                70005 01/22                0   o          15      97            67
336     NBH27                N684  01/19                0   o           1      88            64
337     NBH28                X0195 01/19                0   o           2      99           135
338     NBH29                60106 01/19                0   o           3      44            90
339     NBH30                71017 01/19                0   o          20     105           143
340     NBH31                71441 01/19                0   o          60     404           551
341     NBH32                1110K 01/19                0   o           1      68            46
342     NBH33                01398 01/20                0   o          20      37            49
343     NBH34                P614  01/20                0   o           1       8             5
344     NBH5                 ND395 01/19                0   o           6      26           112
345     NBH6                 NB057 01/19                0   o           6      17            75
346     NBH7                 LA7EA 01/22                0   o          15     190           136
347     NBH8                 A0103 01/19                0   o          30      29            42
348     NBH9                 2D002 01/19                0   o          15      77            62
349     NBJHK                123   08/18               a2   a22        98      20           231
350     NEPROD               123   08/18               a2   a22        50      20           118
351     NEPROD               1212  12/56               a2   a22         8      26            23
352     NEPROD               123   08/18               a2   a22       299      20           706
353     NEUROBION PLUS TAB   17002 01/20                0   11         10      86            61
354     NEW PROD             125   12/56 38     SUN     3   3          12       4            10
355     NEW PROD             125   12/56 38     SUN     3   3           2       3             1
356     NNNNN                1223  12/57 SOAP   gff     2   2           7      30            80
357     NP1                  12    12/56 cc11    k                    100      20           118
358     NPPP                 123   08/18               a2   a22       100      20           236
359     NPPP                 123   08/18               a2   a22        50      20           118
360     NUROKIND PLUS CAPS   FQ100 01/20 12     MAND    0   12         20      84           125
361     O BERRY 0.2MG        123   08/18        SHRE   a2   a22        17      20           100
362     O BERRY 0.2MG        14789 12/56        SHRE   a2   a22       198      20           348
363     O BERRY 0.2MG        8542  12/55        SHRE   a2   a22         2      15            24
364     O BERRY 0.2MG        123   08/18        SHRE   a2   a22        99      20           234
365     O BERRY 0.2MG        123   08/18        SHRE   a2   a22        89      20           105
366     OILATUM LOTION       123   08/18              100ML            50      20           118
367     OILATUM LOTION       12    12/55              100ML             1      20            12
368     OPC230               4121  12/56        KRON                   96      20           113
369     P 125                12    12/56               a5   a5        110       2            12
370     P 125                125   08/22               a5   a5         99       2            12
371     P 125                12    12/22               a5   a5        195      40           690
372     P 125                123   08/18        DOLP   a2   a22        53      20           125
373     P 125                123   08/18        DOLP   a2   a22       211      20           498
374     P 125                125   08/55               a5   a5        100       2            12
375     P 125                125   08/22               a5   a5        100       2            12
376     P 125                21    12/56               a5   a5          2      20             2
377     P 125                125   08/22               a5   a5         20       2             2
378     P 125 TAB            66002 01/20                0   13         20      10            15
379     P1                   123   08/18               a2   a22       178      20           420
380     P1                   123   08/18               a2   a22        10      20           118
381     P1                   45    12/18               a2   a22         1      20             2
382     PAN MPS SUSP         058NB 01/20                0   14          2      81           114
383     PCH                  12    12/56 pch    DRJR                  145      30           162
384     PCH                  12    12/56 pch    DRJR                  400      30           448
385     PCH                  12    12/56 pch    DRJR                   39      41            87
386     PO                   123   12/22 a      asww   4p   8p        100      20           118
387     POLYBION AMP         17020 01/20                0   15          5      50            39
388     PPPPP                45    12/66 c1     kkk    1q   1w         10       9            28
389     PPPPP                45    12/66 c1     kkk    1q   1w        100       9            28
390     PPRO1                12    12/56 a      asww   4p   8p        198      20           234
391     PPRO1                12    12/25 a      asww   4p   8p          3      25            10
392     Q CLAV 625 MG 6S     10    12/58                              875      25           883
393     Q CO CAPS            155   12/58         f                    187      30           221
394     Q GOLD CAPS          nhhn  12/57 38     PHAR                 2914      35          4553
395     RANIDOM(NF) TAB      GQ071 01/20                0   16         27      46            43
396     RESTYL-0.25MG-TAB ** 70734 01/20                0   17         31      18            26
397     RIDOF INJ            4     12/56               a4   a4          1      25             1
398     RIDOF INJ            43275 03/19               a4   a4         74       6           409
399     RIDOF INJ            12    12/56               a4   a4        194      40           582
400     S AMLOKIND 2.5MG     123   08/18                               39      20            92
401     S AMLOKIND 2.5MG     12    12/56                               98      30           231
402     S AMLOKIND 2.5MG     S45   05/20        MANK    1   2          20     450           373
403     S AMLOSAFE 2.5MG     53    03/22 38     ARIS                  206      40           474
404     S AMLOSAFE 2.5MG     53    03/22 38     ARIS                  163      40           412
405     S AMLOSAFE AT 2.5 MG 12    12/56 38     OTSI    2   2           7      25            31
406     S AMLOSAFE AT 2.5 MG 12    12/65 38     OTSI    2   2         200      30           472
407     S AMLOSAFE AT 2.5 MG 12    12/56 38     OTSI    2   2           9      25            42
408     S AMLOSAFE AT 2.5 MG 12    12/56 38     OTSI    2   2          25      25           105
409     S CELEPRA 20MG       123   08/18               a2   a22        50      20           118
410     S CELEPRA 20MG       123   08/18               a2   a22        49      20           116
411     S CELEPRA 20MG       123   08/18               a2   a22        50      20           118
412     S CELEPRA 20MG       123   08/18               a2   a22       100      20           236
413     S CELEPRA 20MG       23    09/22               a2   a22       156      30           184
414     S CELEPRA 20MG       123   08/18               a2   a22       391      20           923
415     S CELEPRA 5MG        1     12/66 3      MICR    3   3           4       3             2
416     S CELEPRA 5MG        1     12/66 3      MICR    3   3          18       3             9
417     S CELEPRA 5MG        1     12/66 3      MICR    3   3          17       5            10
418     S CITADEP 5MG        12    12/56 3      CIPL    2   2           8       4             5
419     S CITADEP 5MG        12    12/56 3      CIPL    2   2          15       4             9
420     S CITADEP 5MG        12    12/56 3      CIPL    2   2          18       4            11
421     S CITADEP 5MG        12    12/56 3      CIPL    2   2          15       4             7
422     S FLO MOUTH WASH     12    12/56 38     REDD 123456712zxc       8      10            24
423     S FLO MOUTH WASH     12    12/56 38     REDD 123456712zxc       4      10            12
424     S FLO MOUTH WASH     12    12/56 38     REDD 123456712zxc       4      10            12
425     S FLO MOUTH WASH     12    12/56 38     REDD 123456712zxc       8      10            24
426     S FLO MOUTH WASH     12    12/56 38     REDD 123456712zxc       4      10            12
427     S MUCOLITE 60ML = SA 12    12/56        MACL        2          10      15            20
428     S MUCOLITE 60ML = SA 12    12/56        MACL        2          10      15            21
429     SAAD2                125   08/22               a5   a5         80       2             9
430     SANDOCAL 500MG TAB   0733F 01/20                0   18         28     246           180
431     SCSCCS               125   08/22               a5   a5        100       2            12
432     SCSDFF               123   08/22               aa1  11a       100      20           116
433     SDAD                 77    12/78 a      asww   4p   8p          3       6             7
434     SDASD[]              12    12/19        DRJR    2   2           3      10            14
435     SDD                  123   12/58 m       .      7   3           8      15            18
436     SDD                  a     12/52 m       .      7   3           5      10             8
437     SDD                  a     12/52 m       .      7   3           8      10            17
438     SDD                  a     12/52 m       .      7   3           8      10            14
439     SDD                  a     12/52 m       .      7   3           7      10            15
440     SDVDFDSFSDF          56    12/56 categ  dfsf                    9      25            14
441     SEARCH               54    12/56 categ   xa                   990       6           347
442     SELACE FORTE CAPS    11001 01/20                0   19         15     133            99
443     SENSUR OIL 10ML      70033 01/20 5      LYKA    0   20          2      75           105
444     SER5                 ND395 01/20                0   0          18      26           337
445     SHELCAL HD 12  TAB   70005 01/20                0   21         15      97            67
446     SHIELD-OINTMENT      N684  01/20                0   22          1      88            67
447     SILVEREX IONIC CREAM X0195 01/20                0   23          2      99           135
448     SS                   45    12/25 .       .      7   7           2      25             4
449     SS                   45    12/25 .       .      7   7           2      51            13
450     SSSSS1               65    12/59 categ  sdf     3   3        1089      66          1143
451     SWEC23               123   08/18               a2   a22        10      70           118
452     SWEC24               124   08/18               a3   a23        24      71           141
453     SWEC25               125   08/18               a4   a24        42      72           166
454     SWEC26               126   08/18               a5   a25        64      73           193
455     SWEC27               127   08/18               a6   a26        90      74           222
456     SWEC28               128   08/18               a7   a27       120      75           252
457     SWEC29               129   08/18               a8   a28       154      76           283
458     SWEC30               130   08/18               a9   a29       192      77           316
459     SWEC31               131   08/18               a10  a30       234      78           349
460     SWEC32               132   08/18               a11  a31       280      79           385
461     SWEC33               133   08/18               a12  a32       330      80           421
462     SWEC34               134   08/18               a13  a33       384      81           458
463     SWEC35               135   08/18               a14  a34       442      82           495
464     SWEC36               136   08/18               a15  a35       504      83           534
465     SWEC37               137   08/18               a16  a36       570      84           573
466     SWEC38               138   08/18               a17  a37       640      85           613
467     SWEC39               139   08/18               a18  a38       714      86           653
468     SWEC40               140   08/18               a19  a39       792      87           693
469     SWEC41               141   09/18               a20  a40       874      88           734
470     SWEC42               142   09/18               a21  a41       960      89           775
471     SWEC43               143   09/18               a22  a42      1050      90           816
472     SWEC44               144   09/18               a23  a43      1144      91           856
473     T 98 TAB             12    12/55        MANK                    1      20            10
474     TAZLOC CT-40MG TAB   71017 01/20                0   25         20     105           143
475     TELMA H 40MG  TAB    71441 01/20                0   26         60     404           551
476     TESTITEMCAT          12    12/58 catne   .                      1      22             1
477     TESTITEMCAT          2221  12/25 catne   .                    358      20           211
478     TESTITEMCAT          2221  12/25 catne   .                    201      20           107
479     TESTNEWITEMS         23423 12/25 catne   0                    348      20           278
480     TT1                  12    12/56 nand   kkk                     9       5             9
481     TT1                  12    12/56 nand   kkk                     9       5             9
482     TULASI 120GM         T2313 09/20 TULAS  hcue  R123  B123      100      20          1050
483     TULASI 120GM         T2313 09/20 TULAS  hcue  R123  B123      100      20           935
484     TULASI 120GM         T2313 09/20 TULAS  hcue  R123  B123      100      20          1180
485     TULASI 120GM         T2313 09/20 TULAS  hcue  R123  B123      100      20          1280
486     TULASI 120GM         T2313 09/20 TULAS  hcue  R123  B123      100      20          1120
487     TYHUJIK              125   08/22               a5   a5        100       2            12
488     U LAC CREAM          12    12/56        NULI                  247      20           454
489     U LAC CREAM          78    12/56        NULI                    4   89685           311
490     U LAC CREAM          78    12/56        NULI                    5   89685           389
491     U PROSTONE           45    11/20        UNIS                  110      30           220
492     V & M TAB 15S        12    12/56        ALKE   233  3         100      30           236
493     V & M TAB 15S        123   12/56        ALKE   233  3         100      20           118
494     V & M TAB 15S        123   08/18        ALKE   233  3          60      20            71
495     V 2 PLUS             63265 12/56 38     DRJR   a2   a22        41      50           195
496     V 2 PLUS             123   12/36 38     DRJR   a2   a22        99      25           214
497     V 2 PLUS             123   08/18 38     DRJR   a2   a22        92      20           109
498     V 2 PLUS             12    12/33 38     DRJR   a2   a22        98      20           125
499     V 2 PLUS             1111  12/56 38     DRJR   a2   a22       180      20           521
500     V 2 PLUS             123   08/18 38     DRJR   a2   a22        24      20            28
501     V 2 PLUS             123   08/18 38     DRJR   a2   a22       150      20           177
502     V 2 PLUS             2     12/56 38     DRJR   a2   a22        96      20           113
503     V 2 PLUS             1256  12/56 38     DRJR   a2   a22        44    9665           764
504     V 2 PLUS             132as 12/22 38     DRJR   a2   a22         2      50            93
505     V 2 PLUS             123   12/22 38     DRJR   a2   a22      2000      50           950
506     V 2 PLUS             1111  12/56 38     DRJR   a2   a22       185      20           326
507     V G KIT              5     12/56 38     BIOL                   84     200           735
508     V RET CAPS           85485 12/55               a2   a22       341      25           362
509     V56                  12    12/56 kl      k                      6       2             1
510     VDA                  12    12/56 SOAP   SYST                  100      20           118
511     VVVVV                12    12/56 zzzz   sdf                    26      20           152
512     WAA SYP 60ML         w1    11/19        WOND                   51      60           495
513     WAA SYP 60ML         w1    11/19        WOND                   75      60           655
514     WACET L              82    11/22 38     WALL                  134      28           310
515     WACET L              82    11/22 38     WALL                  198      28           514
516     WIKORYL-TAB          01398 01/20                0   28         20      37            49
517     X TOR F              12    12/56 38     IPCA                    1      20             1
518     X TOR F              12    12/56 38     IPCA                   86      20            96
519     X TOR F              12    12/56 38     IPCA                  177      20           209
520     X TOR F              1     12/85 38     IPCA                   96      20           181
521     X TOR F              1     12/85 38     IPCA                  298      10           501
522     X893221              ND395 02/22                0   o           5      26            94
523     XCSDAZXSDWE          ND395 02/22                0   o           6      26           112
524     XXXXX                121   12/55 sugar  ABBO                   98       2            12
525     XZSADSADDSA          ND395 02/22                0   o          12      26           225
526     Y123                 ND395 01/20                0   0          16      26           300
527     Y124                 NB057 01/20                0   1           6      17            75
528     Y125                 LA7EA 01/20                0   2          15     190           136
529     Y126                 A0103 01/20                0   3          30      29            42
530     Y127                 2D002 01/20                0   4          15      77            62
531     Y128                 T1361 01/20                0   5         200       4            28
532     Y129                 17113 01/20                0   6          30     318           228
533     Y130                 M110  01/20                0   7          30     147           107
534     Y131                 04473 01/20                0   8          60      32           137
535     Y132                 T1612 01/20                0   9          10      23            17
536     Y133                 U1747 01/20                0   10          3      31            61
537     Y134                 17002 01/20                0   11         10      86            61
538     Y135                 FQ100 01/20                0   12         20      84           125
539     Y136                 66002 01/20                0   13         20      10            15
540     Y137                 058NB 01/20                0   14          2      81           114
541     Y138                 17020 01/20                0   15          5      50            39
542     Y139                 GQ071 01/20                0   16         40      46            64
543     Y140                 70734 01/20                0   17         15      18            12
544     Y141                 0733F 01/20                0   18         30     246           192
545     Y142                 11001 01/20                0   19         15     133            99
546     Y143                 70033 01/20                0   20          2      75           105
547     Y144                 70005 01/20                0   21         15      97            67
548     Y145                 N684  01/20                0   22          1      88            67
549     Y146                 X0195 01/20                0   23          2      99           135
550     Y147                 60106 01/20                0   24          3      44            90
551     Y148                 71017 01/20                0   25         20     105           143
552     Y149                 71441 01/20                0   26         60     404           551
553     Y150                 1110K 01/20                0   27          1      68            46
554     Y151                 01398 01/20                0   28         20      37            49
555     Y152                 P614  01/20                0   29          1       8             5
556     YAMINI 21'S          78    12/56        LUPI                  372      10           240
557     YAMINI 21'S          64156 12/58        LUPI                    4      32            23
558     YIM                  ND395 01/20                0   0           6      26           112
559     Z B12                8956  12/56 12     MICR        10        194      20           310
560     Z1111                1     12/44 zzzz   ALAR    2   3           5      20             5
561     Z1111                1     12/44 zzzz   ALAR    2   3          17      20            17
562     ZENTEL-TAB           P614  01/20                0   29          1       8             5

----------------------------------------------------------------------------------------------
      Total Cost Value(GST): 3411825.88                                                        
----------------------------------------------------------------------------------------------
