                                                                                      
                                  RETAIL INVOICE                                      
 -----------------------------------------------------------------------------------
                                                                                      
 #BB#HCUE TEST 2                           #BE#                                               
 54, THIYAGARAYA ST,TNAGAR                      Bill No: R333                         
 CHENNAI,TAMIL NADU,600024                      B Date : 18/09/2018                   
 PHONE NO: 04445265342,MOBILE NO:               Name   :                              
 DL No   : PPPPPTTT                             Mobile : 8883847212                   
 GSTIN No:98596                                 Doctor :                              
                                                Sale Type : Cash                      
 -----------------------------------------------------------------------------------
                                                                                      
 Rack No Qty. Description               Batch   Exp.  M.R.P   Rate  Disc.%  Amount    
 -----------------------------------------------------------------------------------
          1   12QW                       10     12/59   3.00 1000.0  33.33   1000.0   
                                                                                      
                                                                                      
                                                                                      
                                                                                      
 -----------------------------------------------------------------------------------
 Total Amt: 1000.00   CGST:45.45    SGST:45.45                 #BB# Net Amt: 880.00#BE#       
 Amt. in words Rs.Eight Hundred And Eighty                                            
 -----------------------------------------------------------------------------------
           *************** You have saved Rs.  : 100.00 ***************               
 -----------------------------------------------------------------------------------
                                                                                      
                                                                                      
* Return of cut strip/loose pills-caps/seal opened & broken bottles not accepted.     
* Medicines will be retuned only within 7days with batch No. & expiry date.      
* Please consult your doctor before using the medicines.                
* All disputes subject to CHENNAI Jurisdiction only.                                  
                                                                                      
                                                                                      
 USER: PRIYA                         PHARMACIST                       CASHIER         
 -----------------------------------------------------------------------------------
                                                                                      
                                                                                      
                                                                                      
