﻿-d:DEBUG
-d:TRACE
-d:NETSTANDARD1_6
-nowarn:CS1701
-nowarn:CS1702
-nowarn:CS1705
-t:library
-debug:full
-nostdlib
-nologo
"D:\hcuepharma_Loyalty_Start_May2018\hcuepharma\API\HQue.DataAccess\obj\Debug\netstandard1.6\dotnet-compile.assemblyinfo.cs"
-out:"D:\hcuepharma_Loyalty_Start_May2018\hcuepharma\API\HQue.DataAccess\bin\Debug\netstandard1.6\HQue.DataAccess.dll"
-r:"C:\Users\quser004\.nuget\packages\Dapper\1.50.2\lib\netstandard1.3\Dapper.dll"
-r:"C:\Users\quser004\.nuget\packages\Microsoft.AspNetCore.Hosting.Abstractions\1.0.0\lib\netstandard1.3\Microsoft.AspNetCore.Hosting.Abstractions.dll"
-r:"C:\Users\quser004\.nuget\packages\Microsoft.AspNetCore.Hosting.Server.Abstractions\1.0.0\lib\netstandard1.3\Microsoft.AspNetCore.Hosting.Server.Abstractions.dll"
-r:"C:\Users\quser004\.nuget\packages\Microsoft.AspNetCore.Http.Abstractions\1.0.0\lib\netstandard1.3\Microsoft.AspNetCore.Http.Abstractions.dll"
-r:"C:\Users\quser004\.nuget\packages\Microsoft.AspNetCore.Http.Features\1.0.0\lib\netstandard1.3\Microsoft.AspNetCore.Http.Features.dll"
-r:"C:\Users\quser004\.nuget\packages\Microsoft.CSharp\4.0.1\ref\netstandard1.0\Microsoft.CSharp.dll"
-r:"C:\Users\quser004\.nuget\packages\Microsoft.Data.Sqlite\1.0.0\lib\netstandard1.3\Microsoft.Data.Sqlite.dll"
-r:"C:\Users\quser004\.nuget\packages\Microsoft.Extensions.Caching.Abstractions\1.0.0\lib\netstandard1.0\Microsoft.Extensions.Caching.Abstractions.dll"
-r:"C:\Users\quser004\.nuget\packages\Microsoft.Extensions.Configuration.Abstractions\1.0.0\lib\netstandard1.0\Microsoft.Extensions.Configuration.Abstractions.dll"
-r:"C:\Users\quser004\.nuget\packages\Microsoft.Extensions.DependencyInjection.Abstractions\1.0.0\lib\netstandard1.0\Microsoft.Extensions.DependencyInjection.Abstractions.dll"
-r:"C:\Users\quser004\.nuget\packages\Microsoft.Extensions.FileProviders.Abstractions\1.0.0\lib\netstandard1.0\Microsoft.Extensions.FileProviders.Abstractions.dll"
-r:"C:\Users\quser004\.nuget\packages\Microsoft.Extensions.Logging.Abstractions\1.0.0\lib\netstandard1.1\Microsoft.Extensions.Logging.Abstractions.dll"
-r:"C:\Users\quser004\.nuget\packages\Microsoft.Extensions.Primitives\1.0.0\lib\netstandard1.0\Microsoft.Extensions.Primitives.dll"
-r:"C:\Users\quser004\.nuget\packages\Microsoft.Win32.Primitives\4.0.1\ref\netstandard1.3\Microsoft.Win32.Primitives.dll"
-r:"C:\Users\quser004\.nuget\packages\Newtonsoft.Json\9.0.1\lib\netstandard1.0\Newtonsoft.Json.dll"
-r:"C:\Users\quser004\.nuget\packages\System.AppContext\4.1.0\ref\netstandard1.6\System.AppContext.dll"
-r:"C:\Users\quser004\.nuget\packages\System.Collections\4.0.11\ref\netstandard1.3\System.Collections.dll"
-r:"C:\Users\quser004\.nuget\packages\System.Collections.Concurrent\4.0.12\ref\netstandard1.3\System.Collections.Concurrent.dll"
-r:"C:\Users\quser004\.nuget\packages\System.Collections.NonGeneric\4.0.1\ref\netstandard1.3\System.Collections.NonGeneric.dll"
-r:"C:\Users\quser004\.nuget\packages\System.ComponentModel\4.0.1\ref\netstandard1.0\System.ComponentModel.dll"
-r:"C:\Users\quser004\.nuget\packages\System.ComponentModel.Annotations\4.1.0\ref\netstandard1.4\System.ComponentModel.Annotations.dll"
-r:"C:\Users\quser004\.nuget\packages\System.Console\4.0.0\ref\netstandard1.3\System.Console.dll"
-r:"C:\Users\quser004\.nuget\packages\System.Data.Common\4.1.0\ref\netstandard1.2\System.Data.Common.dll"
-r:"C:\Users\quser004\.nuget\packages\System.Data.SqlClient\4.1.0\ref\netstandard1.3\System.Data.SqlClient.dll"
-r:"C:\Users\quser004\.nuget\packages\System.Diagnostics.Debug\4.0.11\ref\netstandard1.3\System.Diagnostics.Debug.dll"
-r:"C:\Users\quser004\.nuget\packages\System.Diagnostics.Tools\4.0.1\ref\netstandard1.0\System.Diagnostics.Tools.dll"
-r:"C:\Users\quser004\.nuget\packages\System.Diagnostics.Tracing\4.1.0\ref\netstandard1.5\System.Diagnostics.Tracing.dll"
-r:"C:\Users\quser004\.nuget\packages\System.Dynamic.Runtime\4.0.11\ref\netstandard1.3\System.Dynamic.Runtime.dll"
-r:"C:\Users\quser004\.nuget\packages\System.Globalization\4.0.11\ref\netstandard1.3\System.Globalization.dll"
-r:"C:\Users\quser004\.nuget\packages\System.Globalization.Calendars\4.0.1\ref\netstandard1.3\System.Globalization.Calendars.dll"
-r:"C:\Users\quser004\.nuget\packages\System.Globalization.Extensions\4.0.1\ref\netstandard1.3\System.Globalization.Extensions.dll"
-r:"C:\Users\quser004\.nuget\packages\System.IO\4.1.0\ref\netstandard1.5\System.IO.dll"
-r:"C:\Users\quser004\.nuget\packages\System.IO.Compression\4.1.0\ref\netstandard1.3\System.IO.Compression.dll"
-r:"C:\Users\quser004\.nuget\packages\System.IO.Compression.ZipFile\4.0.1\ref\netstandard1.3\System.IO.Compression.ZipFile.dll"
-r:"C:\Users\quser004\.nuget\packages\System.IO.FileSystem\4.0.1\ref\netstandard1.3\System.IO.FileSystem.dll"
-r:"C:\Users\quser004\.nuget\packages\System.IO.FileSystem.Primitives\4.0.1\ref\netstandard1.3\System.IO.FileSystem.Primitives.dll"
-r:"C:\Users\quser004\.nuget\packages\System.Linq\4.1.0\ref\netstandard1.6\System.Linq.dll"
-r:"C:\Users\quser004\.nuget\packages\System.Linq.Expressions\4.1.0\ref\netstandard1.6\System.Linq.Expressions.dll"
-r:"C:\Users\quser004\.nuget\packages\System.Net.Http\4.1.0\ref\netstandard1.3\System.Net.Http.dll"
-r:"C:\Users\quser004\.nuget\packages\System.Net.Primitives\4.0.11\ref\netstandard1.3\System.Net.Primitives.dll"
-r:"C:\Users\quser004\.nuget\packages\System.Net.Sockets\4.1.0\ref\netstandard1.3\System.Net.Sockets.dll"
-r:"C:\Users\quser004\.nuget\packages\System.Net.WebSockets\4.0.0\ref\netstandard1.3\System.Net.WebSockets.dll"
-r:"C:\Users\quser004\.nuget\packages\System.ObjectModel\4.0.12\ref\netstandard1.3\System.ObjectModel.dll"
-r:"C:\Users\quser004\.nuget\packages\System.Reflection\4.1.0\ref\netstandard1.5\System.Reflection.dll"
-r:"C:\Users\quser004\.nuget\packages\System.Reflection.Emit\4.0.1\ref\netstandard1.1\System.Reflection.Emit.dll"
-r:"C:\Users\quser004\.nuget\packages\System.Reflection.Emit.ILGeneration\4.0.1\ref\netstandard1.0\System.Reflection.Emit.ILGeneration.dll"
-r:"C:\Users\quser004\.nuget\packages\System.Reflection.Emit.Lightweight\4.0.1\ref\netstandard1.0\System.Reflection.Emit.Lightweight.dll"
-r:"C:\Users\quser004\.nuget\packages\System.Reflection.Extensions\4.0.1\ref\netstandard1.0\System.Reflection.Extensions.dll"
-r:"C:\Users\quser004\.nuget\packages\System.Reflection.Primitives\4.0.1\ref\netstandard1.0\System.Reflection.Primitives.dll"
-r:"C:\Users\quser004\.nuget\packages\System.Reflection.TypeExtensions\4.1.0\ref\netstandard1.5\System.Reflection.TypeExtensions.dll"
-r:"C:\Users\quser004\.nuget\packages\System.Resources.ResourceManager\4.0.1\ref\netstandard1.0\System.Resources.ResourceManager.dll"
-r:"C:\Users\quser004\.nuget\packages\System.Runtime\4.1.0\ref\netstandard1.5\System.Runtime.dll"
-r:"C:\Users\quser004\.nuget\packages\System.Runtime.Extensions\4.1.0\ref\netstandard1.5\System.Runtime.Extensions.dll"
-r:"C:\Users\quser004\.nuget\packages\System.Runtime.Handles\4.0.1\ref\netstandard1.3\System.Runtime.Handles.dll"
-r:"C:\Users\quser004\.nuget\packages\System.Runtime.InteropServices\4.1.0\ref\netstandard1.5\System.Runtime.InteropServices.dll"
-r:"C:\Users\quser004\.nuget\packages\System.Runtime.InteropServices.RuntimeInformation\4.0.0\ref\netstandard1.1\System.Runtime.InteropServices.RuntimeInformation.dll"
-r:"C:\Users\quser004\.nuget\packages\System.Runtime.Numerics\4.0.1\ref\netstandard1.1\System.Runtime.Numerics.dll"
-r:"C:\Users\quser004\.nuget\packages\System.Runtime.Serialization.Primitives\4.1.1\ref\netstandard1.3\System.Runtime.Serialization.Primitives.dll"
-r:"C:\Users\quser004\.nuget\packages\System.Security.Claims\4.0.1\ref\netstandard1.3\System.Security.Claims.dll"
-r:"C:\Users\quser004\.nuget\packages\System.Security.Cryptography.Algorithms\4.2.0\ref\netstandard1.6\System.Security.Cryptography.Algorithms.dll"
-r:"C:\Users\quser004\.nuget\packages\System.Security.Cryptography.Encoding\4.0.0\ref\netstandard1.3\System.Security.Cryptography.Encoding.dll"
-r:"C:\Users\quser004\.nuget\packages\System.Security.Cryptography.Primitives\4.0.0\ref\netstandard1.3\System.Security.Cryptography.Primitives.dll"
-r:"C:\Users\quser004\.nuget\packages\System.Security.Cryptography.X509Certificates\4.1.0\ref\netstandard1.4\System.Security.Cryptography.X509Certificates.dll"
-r:"C:\Users\quser004\.nuget\packages\System.Security.Principal\4.0.1\ref\netstandard1.0\System.Security.Principal.dll"
-r:"C:\Users\quser004\.nuget\packages\System.Text.Encoding\4.0.11\ref\netstandard1.3\System.Text.Encoding.dll"
-r:"C:\Users\quser004\.nuget\packages\System.Text.Encoding.Extensions\4.0.11\ref\netstandard1.3\System.Text.Encoding.Extensions.dll"
-r:"C:\Users\quser004\.nuget\packages\System.Text.Encodings.Web\4.0.0\lib\netstandard1.0\System.Text.Encodings.Web.dll"
-r:"C:\Users\quser004\.nuget\packages\System.Text.RegularExpressions\4.1.0\ref\netstandard1.6\System.Text.RegularExpressions.dll"
-r:"C:\Users\quser004\.nuget\packages\System.Threading\4.0.11\ref\netstandard1.3\System.Threading.dll"
-r:"C:\Users\quser004\.nuget\packages\System.Threading.Tasks\4.0.11\ref\netstandard1.3\System.Threading.Tasks.dll"
-r:"C:\Users\quser004\.nuget\packages\System.Threading.Tasks.Parallel\4.0.1\ref\netstandard1.1\System.Threading.Tasks.Parallel.dll"
-r:"C:\Users\quser004\.nuget\packages\System.Threading.Timer\4.0.1\ref\netstandard1.2\System.Threading.Timer.dll"
-r:"C:\Users\quser004\.nuget\packages\System.Xml.ReaderWriter\4.0.11\ref\netstandard1.3\System.Xml.ReaderWriter.dll"
-r:"C:\Users\quser004\.nuget\packages\System.Xml.XDocument\4.0.11\ref\netstandard1.3\System.Xml.XDocument.dll"
-r:"C:\Users\quser004\.nuget\packages\System.Xml.XmlDocument\4.0.1\ref\netstandard1.3\System.Xml.XmlDocument.dll"
-r:"D:\hcuepharma_Loyalty_Start_May2018\hcuepharma\API\DataAccess\bin\Debug\netstandard1.6\DataAccess.dll"
-r:"D:\hcuepharma_Loyalty_Start_May2018\hcuepharma\API\HQue.Contract\bin\Debug\netstandard1.6\HQue.Contract.dll"
-r:"D:\hcuepharma_Loyalty_Start_May2018\hcuepharma\API\HQue.Contract.External\bin\Debug\netstandard1.6\HQue.Contract.External.dll"
-r:"D:\hcuepharma_Loyalty_Start_May2018\hcuepharma\API\HQue.ServiceConnector\bin\Debug\netstandard1.6\HQue.ServiceConnector.dll"
-r:"D:\hcuepharma_Loyalty_Start_May2018\hcuepharma\API\Utilities\bin\Debug\netstandard1.6\Utilities.dll"
"D:\hcuepharma_Loyalty_Start_May2018\hcuepharma\API\HQue.DataAccess\BaseDataAccess.cs"
"D:\hcuepharma_Loyalty_Start_May2018\hcuepharma\API\HQue.DataAccess\Accounts\CustomerReceiptDataAccess.cs"
"D:\hcuepharma_Loyalty_Start_May2018\hcuepharma\API\HQue.DataAccess\Accounts\PaymentDataAccess.cs"
"D:\hcuepharma_Loyalty_Start_May2018\hcuepharma\API\HQue.DataAccess\Accounts\PettyCashDataAccess.cs"
"D:\hcuepharma_Loyalty_Start_May2018\hcuepharma\API\HQue.DataAccess\Accounts\PettyCashDtlDataAccess.cs"
"D:\hcuepharma_Loyalty_Start_May2018\hcuepharma\API\HQue.DataAccess\Accounts\PettyCashHdrDataAccess.cs"
"D:\hcuepharma_Loyalty_Start_May2018\hcuepharma\API\HQue.DataAccess\Accounts\PettyCashSettingsDataAccess.cs"
"D:\hcuepharma_Loyalty_Start_May2018\hcuepharma\API\HQue.DataAccess\Audits\AuditDataAccess.cs"
"D:\hcuepharma_Loyalty_Start_May2018\hcuepharma\API\HQue.DataAccess\Communication\CommunicationDataAccess.cs"
"D:\hcuepharma_Loyalty_Start_May2018\hcuepharma\API\HQue.DataAccess\Dashboard\DashboardDataAccess.cs"
"D:\hcuepharma_Loyalty_Start_May2018\hcuepharma\API\HQue.DataAccess\DbModel\AccountTable.cs"
"D:\hcuepharma_Loyalty_Start_May2018\hcuepharma\API\HQue.DataAccess\DbModel\AlternateVendorProductTable.cs"
"D:\hcuepharma_Loyalty_Start_May2018\hcuepharma\API\HQue.DataAccess\DbModel\bakProductStockTable.cs"
"D:\hcuepharma_Loyalty_Start_May2018\hcuepharma\API\HQue.DataAccess\DbModel\BarcodePrnDesignTable.cs"
"D:\hcuepharma_Loyalty_Start_May2018\hcuepharma\API\HQue.DataAccess\DbModel\BarcodeProfileTable.cs"
"D:\hcuepharma_Loyalty_Start_May2018\hcuepharma\API\HQue.DataAccess\DbModel\BatchListSettingsTable.cs"
"D:\hcuepharma_Loyalty_Start_May2018\hcuepharma\API\HQue.DataAccess\DbModel\BillPrintSettingsTable.cs"
"D:\hcuepharma_Loyalty_Start_May2018\hcuepharma\API\HQue.DataAccess\DbModel\CardTypeSettingsTable.cs"
"D:\hcuepharma_Loyalty_Start_May2018\hcuepharma\API\HQue.DataAccess\DbModel\ClosingStockTable.cs"
"D:\hcuepharma_Loyalty_Start_May2018\hcuepharma\API\HQue.DataAccess\DbModel\CommunicationLogTable.cs"
"D:\hcuepharma_Loyalty_Start_May2018\hcuepharma\API\HQue.DataAccess\DbModel\CustomDevReportTable.cs"
"D:\hcuepharma_Loyalty_Start_May2018\hcuepharma\API\HQue.DataAccess\DbModel\CustomerIDSeriesItemTable.cs"
"D:\hcuepharma_Loyalty_Start_May2018\hcuepharma\API\HQue.DataAccess\DbModel\CustomerPaymentTable.cs"
"D:\hcuepharma_Loyalty_Start_May2018\hcuepharma\API\HQue.DataAccess\DbModel\CustomReportTable.cs"
"D:\hcuepharma_Loyalty_Start_May2018\hcuepharma\API\HQue.DataAccess\DbModel\CustomSettingsDetailTable.cs"
"D:\hcuepharma_Loyalty_Start_May2018\hcuepharma\API\HQue.DataAccess\DbModel\CustomSettingsTable.cs"
"D:\hcuepharma_Loyalty_Start_May2018\hcuepharma\API\HQue.DataAccess\DbModel\DCVendorPurchaseItemTable.cs"
"D:\hcuepharma_Loyalty_Start_May2018\hcuepharma\API\HQue.DataAccess\DbModel\DebugTable.cs"
"D:\hcuepharma_Loyalty_Start_May2018\hcuepharma\API\HQue.DataAccess\DbModel\DefaultDoctorTable.cs"
"D:\hcuepharma_Loyalty_Start_May2018\hcuepharma\API\HQue.DataAccess\DbModel\DeliveryBoyTable.cs"
"D:\hcuepharma_Loyalty_Start_May2018\hcuepharma\API\HQue.DataAccess\DbModel\DiscountRulesTable.cs"
"D:\hcuepharma_Loyalty_Start_May2018\hcuepharma\API\HQue.DataAccess\DbModel\DoctorTable.cs"
"D:\hcuepharma_Loyalty_Start_May2018\hcuepharma\API\HQue.DataAccess\DbModel\DomainMasterTable.cs"
"D:\hcuepharma_Loyalty_Start_May2018\hcuepharma\API\HQue.DataAccess\DbModel\DomainValuesTable.cs"
"D:\hcuepharma_Loyalty_Start_May2018\hcuepharma\API\HQue.DataAccess\DbModel\DraftVendorPurchaseItemTable.cs"
"D:\hcuepharma_Loyalty_Start_May2018\hcuepharma\API\HQue.DataAccess\DbModel\DraftVendorPurchaseTable.cs"
"D:\hcuepharma_Loyalty_Start_May2018\hcuepharma\API\HQue.DataAccess\DbModel\ErrorLogTable.cs"
"D:\hcuepharma_Loyalty_Start_May2018\hcuepharma\API\HQue.DataAccess\DbModel\EstimateItemTable.cs"
"D:\hcuepharma_Loyalty_Start_May2018\hcuepharma\API\HQue.DataAccess\DbModel\EstimateTable.cs"
"D:\hcuepharma_Loyalty_Start_May2018\hcuepharma\API\HQue.DataAccess\DbModel\FinYearMasterTable.cs"
"D:\hcuepharma_Loyalty_Start_May2018\hcuepharma\API\HQue.DataAccess\DbModel\FinYearResetStatusTable.cs"
"D:\hcuepharma_Loyalty_Start_May2018\hcuepharma\API\HQue.DataAccess\DbModel\HQueUserTable.cs"
"D:\hcuepharma_Loyalty_Start_May2018\hcuepharma\API\HQue.DataAccess\DbModel\ImportProcessActivityTable.cs"
"D:\hcuepharma_Loyalty_Start_May2018\hcuepharma\API\HQue.DataAccess\DbModel\InstanceClientTable.cs"
"D:\hcuepharma_Loyalty_Start_May2018\hcuepharma\API\HQue.DataAccess\DbModel\InstanceTable.cs"
"D:\hcuepharma_Loyalty_Start_May2018\hcuepharma\API\HQue.DataAccess\DbModel\InventoryReOrderTable.cs"
"D:\hcuepharma_Loyalty_Start_May2018\hcuepharma\API\HQue.DataAccess\DbModel\InventorySettingsTable.cs"
"D:\hcuepharma_Loyalty_Start_May2018\hcuepharma\API\HQue.DataAccess\DbModel\InventorySmsSettingsTable.cs"
"D:\hcuepharma_Loyalty_Start_May2018\hcuepharma\API\HQue.DataAccess\DbModel\InventoryUpdateHistoryTable.cs"
"D:\hcuepharma_Loyalty_Start_May2018\hcuepharma\API\HQue.DataAccess\DbModel\InvoiceSeriesItemTable.cs"
"D:\hcuepharma_Loyalty_Start_May2018\hcuepharma\API\HQue.DataAccess\DbModel\InvoiceSeriesTable.cs"
"D:\hcuepharma_Loyalty_Start_May2018\hcuepharma\API\HQue.DataAccess\DbModel\KindProductMasterTable.cs"
"D:\hcuepharma_Loyalty_Start_May2018\hcuepharma\API\HQue.DataAccess\DbModel\LeadsProductTable.cs"
"D:\hcuepharma_Loyalty_Start_May2018\hcuepharma\API\HQue.DataAccess\DbModel\LeadsTable.cs"
"D:\hcuepharma_Loyalty_Start_May2018\hcuepharma\API\HQue.DataAccess\DbModel\LoginHistoryTable.cs"
"D:\hcuepharma_Loyalty_Start_May2018\hcuepharma\API\HQue.DataAccess\DbModel\LoyaltyPointSettingsTable.cs"
"D:\hcuepharma_Loyalty_Start_May2018\hcuepharma\API\HQue.DataAccess\DbModel\LoyaltyProductPointsTable.cs"
"D:\hcuepharma_Loyalty_Start_May2018\hcuepharma\API\HQue.DataAccess\DbModel\MissedOrderTable.cs"
"D:\hcuepharma_Loyalty_Start_May2018\hcuepharma\API\HQue.DataAccess\DbModel\OrderSettingsTable.cs"
"D:\hcuepharma_Loyalty_Start_May2018\hcuepharma\API\HQue.DataAccess\DbModel\PageShortcutSettingsTable.cs"
"D:\hcuepharma_Loyalty_Start_May2018\hcuepharma\API\HQue.DataAccess\DbModel\PatientOrderInstanceStatusTable.cs"
"D:\hcuepharma_Loyalty_Start_May2018\hcuepharma\API\HQue.DataAccess\DbModel\PatientOrderTable.cs"
"D:\hcuepharma_Loyalty_Start_May2018\hcuepharma\API\HQue.DataAccess\DbModel\PatientTable.cs"
"D:\hcuepharma_Loyalty_Start_May2018\hcuepharma\API\HQue.DataAccess\DbModel\PaymentTable.cs"
"D:\hcuepharma_Loyalty_Start_May2018\hcuepharma\API\HQue.DataAccess\DbModel\PaymentTypeTable.cs"
"D:\hcuepharma_Loyalty_Start_May2018\hcuepharma\API\HQue.DataAccess\DbModel\PettyCashDtlTable.cs"
"D:\hcuepharma_Loyalty_Start_May2018\hcuepharma\API\HQue.DataAccess\DbModel\PettyCashHdrTable.cs"
"D:\hcuepharma_Loyalty_Start_May2018\hcuepharma\API\HQue.DataAccess\DbModel\PettyCashSettingsTable.cs"
"D:\hcuepharma_Loyalty_Start_May2018\hcuepharma\API\HQue.DataAccess\DbModel\PettyCashTable.cs"
"D:\hcuepharma_Loyalty_Start_May2018\hcuepharma\API\HQue.DataAccess\DbModel\PharmacyPaymentTable.cs"
"D:\hcuepharma_Loyalty_Start_May2018\hcuepharma\API\HQue.DataAccess\DbModel\PharmacyTimingTable.cs"
"D:\hcuepharma_Loyalty_Start_May2018\hcuepharma\API\HQue.DataAccess\DbModel\PharmacyUploadsTable.cs"
"D:\hcuepharma_Loyalty_Start_May2018\hcuepharma\API\HQue.DataAccess\DbModel\PhysicalStockHistoryTable.cs"
"D:\hcuepharma_Loyalty_Start_May2018\hcuepharma\API\HQue.DataAccess\DbModel\ProductInstanceTable.cs"
"D:\hcuepharma_Loyalty_Start_May2018\hcuepharma\API\HQue.DataAccess\DbModel\ProductMasterTable.cs"
"D:\hcuepharma_Loyalty_Start_May2018\hcuepharma\API\HQue.DataAccess\DbModel\ProductSearchSettingsTable.cs"
"D:\hcuepharma_Loyalty_Start_May2018\hcuepharma\API\HQue.DataAccess\DbModel\ProductStockTable.cs"
"D:\hcuepharma_Loyalty_Start_May2018\hcuepharma\API\HQue.DataAccess\DbModel\productstock_24102016Table.cs"
"D:\hcuepharma_Loyalty_Start_May2018\hcuepharma\API\HQue.DataAccess\DbModel\ProductTable.cs"
"D:\hcuepharma_Loyalty_Start_May2018\hcuepharma\API\HQue.DataAccess\DbModel\product_23092016Table.cs"
"D:\hcuepharma_Loyalty_Start_May2018\hcuepharma\API\HQue.DataAccess\DbModel\product_24102016Table.cs"
"D:\hcuepharma_Loyalty_Start_May2018\hcuepharma\API\HQue.DataAccess\DbModel\Product_deletedTable.cs"
"D:\hcuepharma_Loyalty_Start_May2018\hcuepharma\API\HQue.DataAccess\DbModel\PurchaseSettingsTable.cs"
"D:\hcuepharma_Loyalty_Start_May2018\hcuepharma\API\HQue.DataAccess\DbModel\RegistrationOTPTable.cs"
"D:\hcuepharma_Loyalty_Start_May2018\hcuepharma\API\HQue.DataAccess\DbModel\ReminderProductTable.cs"
"D:\hcuepharma_Loyalty_Start_May2018\hcuepharma\API\HQue.DataAccess\DbModel\ReminderRemarkTable.cs"
"D:\hcuepharma_Loyalty_Start_May2018\hcuepharma\API\HQue.DataAccess\DbModel\ReplicationDataTable.cs"
"D:\hcuepharma_Loyalty_Start_May2018\hcuepharma\API\HQue.DataAccess\DbModel\RequirementTable.cs"
"D:\hcuepharma_Loyalty_Start_May2018\hcuepharma\API\HQue.DataAccess\DbModel\SalesBatchPopUpSettingsTable.cs"
"D:\hcuepharma_Loyalty_Start_May2018\hcuepharma\API\HQue.DataAccess\DbModel\SaleSettingsTable.cs"
"D:\hcuepharma_Loyalty_Start_May2018\hcuepharma\API\HQue.DataAccess\DbModel\SalesItemAuditTable.cs"
"D:\hcuepharma_Loyalty_Start_May2018\hcuepharma\API\HQue.DataAccess\DbModel\SalesItemTable.cs"
"D:\hcuepharma_Loyalty_Start_May2018\hcuepharma\API\HQue.DataAccess\DbModel\SalesOrderEstimateItemTable.cs"
"D:\hcuepharma_Loyalty_Start_May2018\hcuepharma\API\HQue.DataAccess\DbModel\SalesOrderEstimateTable.cs"
"D:\hcuepharma_Loyalty_Start_May2018\hcuepharma\API\HQue.DataAccess\DbModel\SalesPaymentTable.cs"
"D:\hcuepharma_Loyalty_Start_May2018\hcuepharma\API\HQue.DataAccess\DbModel\SalesReturnItemAuditTable.cs"
"D:\hcuepharma_Loyalty_Start_May2018\hcuepharma\API\HQue.DataAccess\DbModel\SalesReturnItemTable.cs"
"D:\hcuepharma_Loyalty_Start_May2018\hcuepharma\API\HQue.DataAccess\DbModel\SalesReturnTable.cs"
"D:\hcuepharma_Loyalty_Start_May2018\hcuepharma\API\HQue.DataAccess\DbModel\SalesTable.cs"
"D:\hcuepharma_Loyalty_Start_May2018\hcuepharma\API\HQue.DataAccess\DbModel\SalesTemplateItemTable.cs"
"D:\hcuepharma_Loyalty_Start_May2018\hcuepharma\API\HQue.DataAccess\DbModel\SalesTemplateTable.cs"
"D:\hcuepharma_Loyalty_Start_May2018\hcuepharma\API\HQue.DataAccess\DbModel\SalesTypeTable.cs"
"D:\hcuepharma_Loyalty_Start_May2018\hcuepharma\API\HQue.DataAccess\DbModel\SchedulerLogTable.cs"
"D:\hcuepharma_Loyalty_Start_May2018\hcuepharma\API\HQue.DataAccess\DbModel\SelfConsumptionTable.cs"
"D:\hcuepharma_Loyalty_Start_May2018\hcuepharma\API\HQue.DataAccess\DbModel\SettingsTable.cs"
"D:\hcuepharma_Loyalty_Start_May2018\hcuepharma\API\HQue.DataAccess\DbModel\SettlementsTable.cs"
"D:\hcuepharma_Loyalty_Start_May2018\hcuepharma\API\HQue.DataAccess\DbModel\SmsConfiguration.cs"
"D:\hcuepharma_Loyalty_Start_May2018\hcuepharma\API\HQue.DataAccess\DbModel\SmsLogTable.cs"
"D:\hcuepharma_Loyalty_Start_May2018\hcuepharma\API\HQue.DataAccess\DbModel\SmsSettingsTable.cs"
"D:\hcuepharma_Loyalty_Start_May2018\hcuepharma\API\HQue.DataAccess\DbModel\StateTable.cs"
"D:\hcuepharma_Loyalty_Start_May2018\hcuepharma\API\HQue.DataAccess\DbModel\StockAdjustmentTable.cs"
"D:\hcuepharma_Loyalty_Start_May2018\hcuepharma\API\HQue.DataAccess\DbModel\StockLedgerUpdateHistoryItemTable.cs"
"D:\hcuepharma_Loyalty_Start_May2018\hcuepharma\API\HQue.DataAccess\DbModel\StockLedgerUpdateHistoryTable.cs"
"D:\hcuepharma_Loyalty_Start_May2018\hcuepharma\API\HQue.DataAccess\DbModel\StockTransferItemTable.cs"
"D:\hcuepharma_Loyalty_Start_May2018\hcuepharma\API\HQue.DataAccess\DbModel\StockTransferTable.cs"
"D:\hcuepharma_Loyalty_Start_May2018\hcuepharma\API\HQue.DataAccess\DbModel\StockValueReportTable.cs"
"D:\hcuepharma_Loyalty_Start_May2018\hcuepharma\API\HQue.DataAccess\DbModel\SyncDataSeedTable.cs"
"D:\hcuepharma_Loyalty_Start_May2018\hcuepharma\API\HQue.DataAccess\DbModel\SyncDataTable.cs"
"D:\hcuepharma_Loyalty_Start_May2018\hcuepharma\API\HQue.DataAccess\DbModel\SyncPendingQueryTable.cs"
"D:\hcuepharma_Loyalty_Start_May2018\hcuepharma\API\HQue.DataAccess\DbModel\SyncSettingsTable.cs"
"D:\hcuepharma_Loyalty_Start_May2018\hcuepharma\API\HQue.DataAccess\DbModel\TaxSeriesItemTable.cs"
"D:\hcuepharma_Loyalty_Start_May2018\hcuepharma\API\HQue.DataAccess\DbModel\TaxValuesTable.cs"
"D:\hcuepharma_Loyalty_Start_May2018\hcuepharma\API\HQue.DataAccess\DbModel\TemplatePurchaseChildMasterSettingsTable.cs"
"D:\hcuepharma_Loyalty_Start_May2018\hcuepharma\API\HQue.DataAccess\DbModel\TemplatePurchaseChildMasterTable.cs"
"D:\hcuepharma_Loyalty_Start_May2018\hcuepharma\API\HQue.DataAccess\DbModel\TemplatePurchaseMasterTable.cs"
"D:\hcuepharma_Loyalty_Start_May2018\hcuepharma\API\HQue.DataAccess\DbModel\tempProductStockTable.cs"
"D:\hcuepharma_Loyalty_Start_May2018\hcuepharma\API\HQue.DataAccess\DbModel\tempSalesItemTable.cs"
"D:\hcuepharma_Loyalty_Start_May2018\hcuepharma\API\HQue.DataAccess\DbModel\tempSalesReturn_30Nov2016Table.cs"
"D:\hcuepharma_Loyalty_Start_May2018\hcuepharma\API\HQue.DataAccess\DbModel\tempSalesTable.cs"
"D:\hcuepharma_Loyalty_Start_May2018\hcuepharma\API\HQue.DataAccess\DbModel\TempVendorPurchaseItemTable.cs"
"D:\hcuepharma_Loyalty_Start_May2018\hcuepharma\API\HQue.DataAccess\DbModel\tmp_VendorPurchase_errorTable.cs"
"D:\hcuepharma_Loyalty_Start_May2018\hcuepharma\API\HQue.DataAccess\DbModel\ToolTable.cs"
"D:\hcuepharma_Loyalty_Start_May2018\hcuepharma\API\HQue.DataAccess\DbModel\TransferSettingsTable.cs"
"D:\hcuepharma_Loyalty_Start_May2018\hcuepharma\API\HQue.DataAccess\DbModel\UserAccessTable.cs"
"D:\hcuepharma_Loyalty_Start_May2018\hcuepharma\API\HQue.DataAccess\DbModel\UserReminderTable.cs"
"D:\hcuepharma_Loyalty_Start_May2018\hcuepharma\API\HQue.DataAccess\DbModel\VendorOrderItemTable.cs"
"D:\hcuepharma_Loyalty_Start_May2018\hcuepharma\API\HQue.DataAccess\DbModel\VendorOrderTable.cs"
"D:\hcuepharma_Loyalty_Start_May2018\hcuepharma\API\HQue.DataAccess\DbModel\VendorPurchaseFormulaTable.cs"
"D:\hcuepharma_Loyalty_Start_May2018\hcuepharma\API\HQue.DataAccess\DbModel\VendorPurchaseItemAuditTable.cs"
"D:\hcuepharma_Loyalty_Start_May2018\hcuepharma\API\HQue.DataAccess\DbModel\VendorPurchaseItemTable.cs"
"D:\hcuepharma_Loyalty_Start_May2018\hcuepharma\API\HQue.DataAccess\DbModel\VendorPurchaseTable.cs"
"D:\hcuepharma_Loyalty_Start_May2018\hcuepharma\API\HQue.DataAccess\DbModel\VendorReturnItemTable.cs"
"D:\hcuepharma_Loyalty_Start_May2018\hcuepharma\API\HQue.DataAccess\DbModel\VendorReturnTable.cs"
"D:\hcuepharma_Loyalty_Start_May2018\hcuepharma\API\HQue.DataAccess\DbModel\VendorTable.cs"
"D:\hcuepharma_Loyalty_Start_May2018\hcuepharma\API\HQue.DataAccess\DbModel\VoucherTable.cs"
"D:\hcuepharma_Loyalty_Start_May2018\hcuepharma\API\HQue.DataAccess\ETL\ETLDataAccess.cs"
"D:\hcuepharma_Loyalty_Start_May2018\hcuepharma\API\HQue.DataAccess\Helpers\HelperDataAccess.cs"
"D:\hcuepharma_Loyalty_Start_May2018\hcuepharma\API\HQue.DataAccess\Helpers\Extension\ContractHelper.cs"
"D:\hcuepharma_Loyalty_Start_May2018\hcuepharma\API\HQue.DataAccess\Helpers\Extension\DbHelperExtension.cs"
"D:\hcuepharma_Loyalty_Start_May2018\hcuepharma\API\HQue.DataAccess\Helpers\Extension\DbReaderDefaultValueExtension.cs"
"D:\hcuepharma_Loyalty_Start_May2018\hcuepharma\API\HQue.DataAccess\Helpers\Extension\DbReaderExtension.cs"
"D:\hcuepharma_Loyalty_Start_May2018\hcuepharma\API\HQue.DataAccess\Helpers\Extension\EstimateHelper.cs"
"D:\hcuepharma_Loyalty_Start_May2018\hcuepharma\API\HQue.DataAccess\Helpers\Extension\EstimateItemHelper.cs"
"D:\hcuepharma_Loyalty_Start_May2018\hcuepharma\API\HQue.DataAccess\Helpers\Extension\InstanceHelper.cs"
"D:\hcuepharma_Loyalty_Start_May2018\hcuepharma\API\HQue.DataAccess\Helpers\Extension\ProductHelper.cs"
"D:\hcuepharma_Loyalty_Start_May2018\hcuepharma\API\HQue.DataAccess\Helpers\Extension\ProductStockHelper.cs"
"D:\hcuepharma_Loyalty_Start_May2018\hcuepharma\API\HQue.DataAccess\Helpers\Extension\SalesHelper.cs"
"D:\hcuepharma_Loyalty_Start_May2018\hcuepharma\API\HQue.DataAccess\Helpers\Extension\SalesItemAudit.cs"
"D:\hcuepharma_Loyalty_Start_May2018\hcuepharma\API\HQue.DataAccess\Helpers\Extension\SalesItemHelper.cs"
"D:\hcuepharma_Loyalty_Start_May2018\hcuepharma\API\HQue.DataAccess\Helpers\Extension\SalesReturnItemHelper.cs"
"D:\hcuepharma_Loyalty_Start_May2018\hcuepharma\API\HQue.DataAccess\Helpers\Extension\StateHelper.cs"
"D:\hcuepharma_Loyalty_Start_May2018\hcuepharma\API\HQue.DataAccess\Helpers\Extension\VendorHelper.cs"
"D:\hcuepharma_Loyalty_Start_May2018\hcuepharma\API\HQue.DataAccess\Helpers\Extension\VendorOrderItemHelper.cs"
"D:\hcuepharma_Loyalty_Start_May2018\hcuepharma\API\HQue.DataAccess\Inventory\ProductStockDataAccess.cs"
"D:\hcuepharma_Loyalty_Start_May2018\hcuepharma\API\HQue.DataAccess\Inventory\PurchaseExtendedQuery.cs"
"D:\hcuepharma_Loyalty_Start_May2018\hcuepharma\API\HQue.DataAccess\Inventory\SalesDataAccess.cs"
"D:\hcuepharma_Loyalty_Start_May2018\hcuepharma\API\HQue.DataAccess\Inventory\SalesExtendedQuery.cs"
"D:\hcuepharma_Loyalty_Start_May2018\hcuepharma\API\HQue.DataAccess\Inventory\SalesReturnDataAccess.cs"
"D:\hcuepharma_Loyalty_Start_May2018\hcuepharma\API\HQue.DataAccess\Inventory\StockTransferDataAccess.cs"
"D:\hcuepharma_Loyalty_Start_May2018\hcuepharma\API\HQue.DataAccess\Inventory\StockTransferItemHelper.cs"
"D:\hcuepharma_Loyalty_Start_May2018\hcuepharma\API\HQue.DataAccess\Inventory\VendorOrderDataAccess.cs"
"D:\hcuepharma_Loyalty_Start_May2018\hcuepharma\API\HQue.DataAccess\Inventory\VendorPurchaseDataAccess.cs"
"D:\hcuepharma_Loyalty_Start_May2018\hcuepharma\API\HQue.DataAccess\Inventory\VendorPurchaseReturnDataAccess.cs"
"D:\hcuepharma_Loyalty_Start_May2018\hcuepharma\API\HQue.DataAccess\Inventory\Estimates\EstimateDataAccess.cs"
"D:\hcuepharma_Loyalty_Start_May2018\hcuepharma\API\HQue.DataAccess\Master\DoctorDataAccess.cs"
"D:\hcuepharma_Loyalty_Start_May2018\hcuepharma\API\HQue.DataAccess\Master\LeadsDataAccess.cs"
"D:\hcuepharma_Loyalty_Start_May2018\hcuepharma\API\HQue.DataAccess\Master\PatientDataAccess.cs"
"D:\hcuepharma_Loyalty_Start_May2018\hcuepharma\API\HQue.DataAccess\Master\ProductDataAccess.cs"
"D:\hcuepharma_Loyalty_Start_May2018\hcuepharma\API\HQue.DataAccess\Master\VendorDataAccess.cs"
"D:\hcuepharma_Loyalty_Start_May2018\hcuepharma\API\HQue.DataAccess\Reminder\UserReminderDataAccess.cs"
"D:\hcuepharma_Loyalty_Start_May2018\hcuepharma\API\HQue.DataAccess\Replication\InstanceClientDataAccess.cs"
"D:\hcuepharma_Loyalty_Start_May2018\hcuepharma\API\HQue.DataAccess\Replication\ISyncDataAccess.cs"
"D:\hcuepharma_Loyalty_Start_May2018\hcuepharma\API\HQue.DataAccess\Replication\ISyncDataAccessFactory.cs"
"D:\hcuepharma_Loyalty_Start_May2018\hcuepharma\API\HQue.DataAccess\Replication\OnlineReplicationDataAccess.cs"
"D:\hcuepharma_Loyalty_Start_May2018\hcuepharma\API\HQue.DataAccess\Replication\ReplicationDataAccess.cs"
"D:\hcuepharma_Loyalty_Start_May2018\hcuepharma\API\HQue.DataAccess\Replication\SyncDataAccess.cs"
"D:\hcuepharma_Loyalty_Start_May2018\hcuepharma\API\HQue.DataAccess\Replication\SyncDataAccessFactory.cs"
"D:\hcuepharma_Loyalty_Start_May2018\hcuepharma\API\HQue.DataAccess\Replication\TableFactory.cs"
"D:\hcuepharma_Loyalty_Start_May2018\hcuepharma\API\HQue.DataAccess\Report\CustomerReportDataAccess.cs"
"D:\hcuepharma_Loyalty_Start_May2018\hcuepharma\API\HQue.DataAccess\Report\CustomReportDataAccess.cs"
"D:\hcuepharma_Loyalty_Start_May2018\hcuepharma\API\HQue.DataAccess\Report\ReportDataAccess.cs"
"D:\hcuepharma_Loyalty_Start_May2018\hcuepharma\API\HQue.DataAccess\Report\SupplierReportDataAccess.cs"
"D:\hcuepharma_Loyalty_Start_May2018\hcuepharma\API\HQue.DataAccess\Settings\ToolDataAccess.cs"
"D:\hcuepharma_Loyalty_Start_May2018\hcuepharma\API\HQue.DataAccess\Setup\AccountSetupDataAccess.cs"
"D:\hcuepharma_Loyalty_Start_May2018\hcuepharma\API\HQue.DataAccess\Setup\InstanceSetupDataAccess.cs"
"D:\hcuepharma_Loyalty_Start_May2018\hcuepharma\API\HQue.DataAccess\Setup\RegistrationDataAccess.cs"
"D:\hcuepharma_Loyalty_Start_May2018\hcuepharma\API\HQue.DataAccess\Sync\SyncDataAccess.cs"
"D:\hcuepharma_Loyalty_Start_May2018\hcuepharma\API\HQue.DataAccess\Sync\SyncOnlineDataAccess.cs"
"D:\hcuepharma_Loyalty_Start_May2018\hcuepharma\API\HQue.DataAccess\UserAccount\UserDataAccess.cs"
"D:\hcuepharma_Loyalty_Start_May2018\hcuepharma\API\HQue.DataAccess\UserAccount\UserManagementDataAccess.cs"
