﻿-d:RELEASE
-d:TRACE
-d:NETSTANDARD1_6
-nowarn:CS1701
-nowarn:CS1702
-nowarn:CS1705
-optimize
-t:library
-debug:full
-nostdlib
-nologo
"D:\hcuepharma_Loyalty_Start_May2018\hcuepharma\API\HQue.Contract\obj\Release\netstandard1.6\dotnet-compile.assemblyinfo.cs"
-out:"D:\hcuepharma_Loyalty_Start_May2018\hcuepharma\API\HQue.Contract\bin\Release\netstandard1.6\HQue.Contract.dll"
-r:"C:\Users\quser004\.nuget\packages\Microsoft.CSharp\4.0.1\ref\netstandard1.0\Microsoft.CSharp.dll"
-r:"C:\Users\quser004\.nuget\packages\Microsoft.Win32.Primitives\4.0.1\ref\netstandard1.3\Microsoft.Win32.Primitives.dll"
-r:"C:\Users\quser004\.nuget\packages\Newtonsoft.Json\9.0.1\lib\netstandard1.0\Newtonsoft.Json.dll"
-r:"C:\Users\quser004\.nuget\packages\System.AppContext\4.1.0\ref\netstandard1.6\System.AppContext.dll"
-r:"C:\Users\quser004\.nuget\packages\System.Collections\4.0.11\ref\netstandard1.3\System.Collections.dll"
-r:"C:\Users\quser004\.nuget\packages\System.Collections.Concurrent\4.0.12\ref\netstandard1.3\System.Collections.Concurrent.dll"
-r:"C:\Users\quser004\.nuget\packages\System.ComponentModel\4.0.1\ref\netstandard1.0\System.ComponentModel.dll"
-r:"C:\Users\quser004\.nuget\packages\System.ComponentModel.Annotations\4.1.0\ref\netstandard1.4\System.ComponentModel.Annotations.dll"
-r:"C:\Users\quser004\.nuget\packages\System.Console\4.0.0\ref\netstandard1.3\System.Console.dll"
-r:"C:\Users\quser004\.nuget\packages\System.Data.Common\4.1.0\ref\netstandard1.2\System.Data.Common.dll"
-r:"C:\Users\quser004\.nuget\packages\System.Diagnostics.Debug\4.0.11\ref\netstandard1.3\System.Diagnostics.Debug.dll"
-r:"C:\Users\quser004\.nuget\packages\System.Diagnostics.Tools\4.0.1\ref\netstandard1.0\System.Diagnostics.Tools.dll"
-r:"C:\Users\quser004\.nuget\packages\System.Diagnostics.Tracing\4.1.0\ref\netstandard1.5\System.Diagnostics.Tracing.dll"
-r:"C:\Users\quser004\.nuget\packages\System.Dynamic.Runtime\4.0.11\ref\netstandard1.3\System.Dynamic.Runtime.dll"
-r:"C:\Users\quser004\.nuget\packages\System.Globalization\4.0.11\ref\netstandard1.3\System.Globalization.dll"
-r:"C:\Users\quser004\.nuget\packages\System.Globalization.Calendars\4.0.1\ref\netstandard1.3\System.Globalization.Calendars.dll"
-r:"C:\Users\quser004\.nuget\packages\System.IO\4.1.0\ref\netstandard1.5\System.IO.dll"
-r:"C:\Users\quser004\.nuget\packages\System.IO.Compression\4.1.0\ref\netstandard1.3\System.IO.Compression.dll"
-r:"C:\Users\quser004\.nuget\packages\System.IO.Compression.ZipFile\4.0.1\ref\netstandard1.3\System.IO.Compression.ZipFile.dll"
-r:"C:\Users\quser004\.nuget\packages\System.IO.FileSystem\4.0.1\ref\netstandard1.3\System.IO.FileSystem.dll"
-r:"C:\Users\quser004\.nuget\packages\System.IO.FileSystem.Primitives\4.0.1\ref\netstandard1.3\System.IO.FileSystem.Primitives.dll"
-r:"C:\Users\quser004\.nuget\packages\System.Linq\4.1.0\ref\netstandard1.6\System.Linq.dll"
-r:"C:\Users\quser004\.nuget\packages\System.Linq.Expressions\4.1.0\ref\netstandard1.6\System.Linq.Expressions.dll"
-r:"C:\Users\quser004\.nuget\packages\System.Net.Http\4.1.0\ref\netstandard1.3\System.Net.Http.dll"
-r:"C:\Users\quser004\.nuget\packages\System.Net.Primitives\4.0.11\ref\netstandard1.3\System.Net.Primitives.dll"
-r:"C:\Users\quser004\.nuget\packages\System.Net.Sockets\4.1.0\ref\netstandard1.3\System.Net.Sockets.dll"
-r:"C:\Users\quser004\.nuget\packages\System.ObjectModel\4.0.12\ref\netstandard1.3\System.ObjectModel.dll"
-r:"C:\Users\quser004\.nuget\packages\System.Reflection\4.1.0\ref\netstandard1.5\System.Reflection.dll"
-r:"C:\Users\quser004\.nuget\packages\System.Reflection.Extensions\4.0.1\ref\netstandard1.0\System.Reflection.Extensions.dll"
-r:"C:\Users\quser004\.nuget\packages\System.Reflection.Primitives\4.0.1\ref\netstandard1.0\System.Reflection.Primitives.dll"
-r:"C:\Users\quser004\.nuget\packages\System.Reflection.TypeExtensions\4.1.0\ref\netstandard1.5\System.Reflection.TypeExtensions.dll"
-r:"C:\Users\quser004\.nuget\packages\System.Resources.ResourceManager\4.0.1\ref\netstandard1.0\System.Resources.ResourceManager.dll"
-r:"C:\Users\quser004\.nuget\packages\System.Runtime\4.1.0\ref\netstandard1.5\System.Runtime.dll"
-r:"C:\Users\quser004\.nuget\packages\System.Runtime.Extensions\4.1.0\ref\netstandard1.5\System.Runtime.Extensions.dll"
-r:"C:\Users\quser004\.nuget\packages\System.Runtime.Handles\4.0.1\ref\netstandard1.3\System.Runtime.Handles.dll"
-r:"C:\Users\quser004\.nuget\packages\System.Runtime.InteropServices\4.1.0\ref\netstandard1.5\System.Runtime.InteropServices.dll"
-r:"C:\Users\quser004\.nuget\packages\System.Runtime.InteropServices.RuntimeInformation\4.0.0\ref\netstandard1.1\System.Runtime.InteropServices.RuntimeInformation.dll"
-r:"C:\Users\quser004\.nuget\packages\System.Runtime.Numerics\4.0.1\ref\netstandard1.1\System.Runtime.Numerics.dll"
-r:"C:\Users\quser004\.nuget\packages\System.Runtime.Serialization.Primitives\4.1.1\ref\netstandard1.3\System.Runtime.Serialization.Primitives.dll"
-r:"C:\Users\quser004\.nuget\packages\System.Security.Cryptography.Algorithms\4.2.0\ref\netstandard1.6\System.Security.Cryptography.Algorithms.dll"
-r:"C:\Users\quser004\.nuget\packages\System.Security.Cryptography.Encoding\4.0.0\ref\netstandard1.3\System.Security.Cryptography.Encoding.dll"
-r:"C:\Users\quser004\.nuget\packages\System.Security.Cryptography.Primitives\4.0.0\ref\netstandard1.3\System.Security.Cryptography.Primitives.dll"
-r:"C:\Users\quser004\.nuget\packages\System.Security.Cryptography.X509Certificates\4.1.0\ref\netstandard1.4\System.Security.Cryptography.X509Certificates.dll"
-r:"C:\Users\quser004\.nuget\packages\System.Text.Encoding\4.0.11\ref\netstandard1.3\System.Text.Encoding.dll"
-r:"C:\Users\quser004\.nuget\packages\System.Text.Encoding.Extensions\4.0.11\ref\netstandard1.3\System.Text.Encoding.Extensions.dll"
-r:"C:\Users\quser004\.nuget\packages\System.Text.RegularExpressions\4.1.0\ref\netstandard1.6\System.Text.RegularExpressions.dll"
-r:"C:\Users\quser004\.nuget\packages\System.Threading\4.0.11\ref\netstandard1.3\System.Threading.dll"
-r:"C:\Users\quser004\.nuget\packages\System.Threading.Tasks\4.0.11\ref\netstandard1.3\System.Threading.Tasks.dll"
-r:"C:\Users\quser004\.nuget\packages\System.Threading.Timer\4.0.1\ref\netstandard1.2\System.Threading.Timer.dll"
-r:"C:\Users\quser004\.nuget\packages\System.Xml.ReaderWriter\4.0.11\ref\netstandard1.3\System.Xml.ReaderWriter.dll"
-r:"C:\Users\quser004\.nuget\packages\System.Xml.XDocument\4.0.11\ref\netstandard1.3\System.Xml.XDocument.dll"
"D:\hcuepharma_Loyalty_Start_May2018\hcuepharma\API\HQue.Contract\Base\BaseAccount.cs"
"D:\hcuepharma_Loyalty_Start_May2018\hcuepharma\API\HQue.Contract\Base\BaseAlternateVendorProduct.cs"
"D:\hcuepharma_Loyalty_Start_May2018\hcuepharma\API\HQue.Contract\Base\BasebakProductStock.cs"
"D:\hcuepharma_Loyalty_Start_May2018\hcuepharma\API\HQue.Contract\Base\BaseBarcodePrnDesign.cs"
"D:\hcuepharma_Loyalty_Start_May2018\hcuepharma\API\HQue.Contract\Base\BaseBarcodeProfile.cs"
"D:\hcuepharma_Loyalty_Start_May2018\hcuepharma\API\HQue.Contract\Base\BaseBatchListSettings.cs"
"D:\hcuepharma_Loyalty_Start_May2018\hcuepharma\API\HQue.Contract\Base\BaseBillPrintSettings.cs"
"D:\hcuepharma_Loyalty_Start_May2018\hcuepharma\API\HQue.Contract\Base\BaseCardTypeSettings.cs"
"D:\hcuepharma_Loyalty_Start_May2018\hcuepharma\API\HQue.Contract\Base\BaseClosingStock.cs"
"D:\hcuepharma_Loyalty_Start_May2018\hcuepharma\API\HQue.Contract\Base\BaseCommunicationLog.cs"
"D:\hcuepharma_Loyalty_Start_May2018\hcuepharma\API\HQue.Contract\Base\BaseContract.cs"
"D:\hcuepharma_Loyalty_Start_May2018\hcuepharma\API\HQue.Contract\Base\BaseCustomDevReport.cs"
"D:\hcuepharma_Loyalty_Start_May2018\hcuepharma\API\HQue.Contract\Base\BaseCustomerIDSeriesItem.cs"
"D:\hcuepharma_Loyalty_Start_May2018\hcuepharma\API\HQue.Contract\Base\BaseCustomerPayment.cs"
"D:\hcuepharma_Loyalty_Start_May2018\hcuepharma\API\HQue.Contract\Base\BaseCustomReport.cs"
"D:\hcuepharma_Loyalty_Start_May2018\hcuepharma\API\HQue.Contract\Base\BaseCustomSettings.cs"
"D:\hcuepharma_Loyalty_Start_May2018\hcuepharma\API\HQue.Contract\Base\BaseCustomSettingsDetail.cs"
"D:\hcuepharma_Loyalty_Start_May2018\hcuepharma\API\HQue.Contract\Base\BaseDCVendorPurchaseItem.cs"
"D:\hcuepharma_Loyalty_Start_May2018\hcuepharma\API\HQue.Contract\Base\BaseDebug.cs"
"D:\hcuepharma_Loyalty_Start_May2018\hcuepharma\API\HQue.Contract\Base\BaseDefaultDoctor.cs"
"D:\hcuepharma_Loyalty_Start_May2018\hcuepharma\API\HQue.Contract\Base\BaseDeliveryBoy.cs"
"D:\hcuepharma_Loyalty_Start_May2018\hcuepharma\API\HQue.Contract\Base\BaseDiscountRules.cs"
"D:\hcuepharma_Loyalty_Start_May2018\hcuepharma\API\HQue.Contract\Base\BaseDoctor.cs"
"D:\hcuepharma_Loyalty_Start_May2018\hcuepharma\API\HQue.Contract\Base\BaseDomainMaster.cs"
"D:\hcuepharma_Loyalty_Start_May2018\hcuepharma\API\HQue.Contract\Base\BaseDomainValues.cs"
"D:\hcuepharma_Loyalty_Start_May2018\hcuepharma\API\HQue.Contract\Base\BaseDraftVendorPurchase.cs"
"D:\hcuepharma_Loyalty_Start_May2018\hcuepharma\API\HQue.Contract\Base\BaseDraftVendorPurchaseItem.cs"
"D:\hcuepharma_Loyalty_Start_May2018\hcuepharma\API\HQue.Contract\Base\BaseErrorLog.cs"
"D:\hcuepharma_Loyalty_Start_May2018\hcuepharma\API\HQue.Contract\Base\BaseEstimate.cs"
"D:\hcuepharma_Loyalty_Start_May2018\hcuepharma\API\HQue.Contract\Base\BaseEstimateItem.cs"
"D:\hcuepharma_Loyalty_Start_May2018\hcuepharma\API\HQue.Contract\Base\BaseFinYearMaster.cs"
"D:\hcuepharma_Loyalty_Start_May2018\hcuepharma\API\HQue.Contract\Base\BaseFinYearResetStatus.cs"
"D:\hcuepharma_Loyalty_Start_May2018\hcuepharma\API\HQue.Contract\Base\BaseGSTReport.cs"
"D:\hcuepharma_Loyalty_Start_May2018\hcuepharma\API\HQue.Contract\Base\BaseHQueUser.cs"
"D:\hcuepharma_Loyalty_Start_May2018\hcuepharma\API\HQue.Contract\Base\BaseImportProcessActivity.cs"
"D:\hcuepharma_Loyalty_Start_May2018\hcuepharma\API\HQue.Contract\Base\BaseInstance.cs"
"D:\hcuepharma_Loyalty_Start_May2018\hcuepharma\API\HQue.Contract\Base\BaseInstanceClient.cs"
"D:\hcuepharma_Loyalty_Start_May2018\hcuepharma\API\HQue.Contract\Base\BaseInventoryReOrder.cs"
"D:\hcuepharma_Loyalty_Start_May2018\hcuepharma\API\HQue.Contract\Base\BaseInventorySettings.cs"
"D:\hcuepharma_Loyalty_Start_May2018\hcuepharma\API\HQue.Contract\Base\BaseInventorySmsSettings.cs"
"D:\hcuepharma_Loyalty_Start_May2018\hcuepharma\API\HQue.Contract\Base\BaseInventoryUpdateHistory.cs"
"D:\hcuepharma_Loyalty_Start_May2018\hcuepharma\API\HQue.Contract\Base\BaseInvoiceSeries.cs"
"D:\hcuepharma_Loyalty_Start_May2018\hcuepharma\API\HQue.Contract\Base\BaseInvoiceSeriesItem.cs"
"D:\hcuepharma_Loyalty_Start_May2018\hcuepharma\API\HQue.Contract\Base\BaseKindProductMaster.cs"
"D:\hcuepharma_Loyalty_Start_May2018\hcuepharma\API\HQue.Contract\Base\BaseLeads.cs"
"D:\hcuepharma_Loyalty_Start_May2018\hcuepharma\API\HQue.Contract\Base\BaseLeadsProduct.cs"
"D:\hcuepharma_Loyalty_Start_May2018\hcuepharma\API\HQue.Contract\Base\BaseLoginHistory.cs"
"D:\hcuepharma_Loyalty_Start_May2018\hcuepharma\API\HQue.Contract\Base\BaseLoyaltyPointSettings.cs"
"D:\hcuepharma_Loyalty_Start_May2018\hcuepharma\API\HQue.Contract\Base\BaseLoyaltyProductPoints.cs"
"D:\hcuepharma_Loyalty_Start_May2018\hcuepharma\API\HQue.Contract\Base\BaseMissedOrder.cs"
"D:\hcuepharma_Loyalty_Start_May2018\hcuepharma\API\HQue.Contract\Base\BaseOrderSettings.cs"
"D:\hcuepharma_Loyalty_Start_May2018\hcuepharma\API\HQue.Contract\Base\BasePatient.cs"
"D:\hcuepharma_Loyalty_Start_May2018\hcuepharma\API\HQue.Contract\Base\BasePatientOrder.cs"
"D:\hcuepharma_Loyalty_Start_May2018\hcuepharma\API\HQue.Contract\Base\BasePatientOrderInstanceStatus.cs"
"D:\hcuepharma_Loyalty_Start_May2018\hcuepharma\API\HQue.Contract\Base\BasePayment.cs"
"D:\hcuepharma_Loyalty_Start_May2018\hcuepharma\API\HQue.Contract\Base\BasePaymentType.cs"
"D:\hcuepharma_Loyalty_Start_May2018\hcuepharma\API\HQue.Contract\Base\BasePettyCash.cs"
"D:\hcuepharma_Loyalty_Start_May2018\hcuepharma\API\HQue.Contract\Base\BasePettyCashDtl.cs"
"D:\hcuepharma_Loyalty_Start_May2018\hcuepharma\API\HQue.Contract\Base\BasePettyCashHdr.cs"
"D:\hcuepharma_Loyalty_Start_May2018\hcuepharma\API\HQue.Contract\Base\BasePettyCashSettings.cs"
"D:\hcuepharma_Loyalty_Start_May2018\hcuepharma\API\HQue.Contract\Base\BasePharmacyPayment.cs"
"D:\hcuepharma_Loyalty_Start_May2018\hcuepharma\API\HQue.Contract\Base\BasePharmacyTiming.cs"
"D:\hcuepharma_Loyalty_Start_May2018\hcuepharma\API\HQue.Contract\Base\BasePharmacyUploads.cs"
"D:\hcuepharma_Loyalty_Start_May2018\hcuepharma\API\HQue.Contract\Base\BasePhysicalStockHistory.cs"
"D:\hcuepharma_Loyalty_Start_May2018\hcuepharma\API\HQue.Contract\Base\BaseProduct.cs"
"D:\hcuepharma_Loyalty_Start_May2018\hcuepharma\API\HQue.Contract\Base\BaseProductInstance.cs"
"D:\hcuepharma_Loyalty_Start_May2018\hcuepharma\API\HQue.Contract\Base\BaseProductMaster.cs"
"D:\hcuepharma_Loyalty_Start_May2018\hcuepharma\API\HQue.Contract\Base\BaseProductSearchSettings.cs"
"D:\hcuepharma_Loyalty_Start_May2018\hcuepharma\API\HQue.Contract\Base\BaseProductStock.cs"
"D:\hcuepharma_Loyalty_Start_May2018\hcuepharma\API\HQue.Contract\Base\Baseproductstock_24102016.cs"
"D:\hcuepharma_Loyalty_Start_May2018\hcuepharma\API\HQue.Contract\Base\Baseproduct_23092016.cs"
"D:\hcuepharma_Loyalty_Start_May2018\hcuepharma\API\HQue.Contract\Base\Baseproduct_24102016.cs"
"D:\hcuepharma_Loyalty_Start_May2018\hcuepharma\API\HQue.Contract\Base\BaseProduct_deleted.cs"
"D:\hcuepharma_Loyalty_Start_May2018\hcuepharma\API\HQue.Contract\Base\BasePurchaseSettings.cs"
"D:\hcuepharma_Loyalty_Start_May2018\hcuepharma\API\HQue.Contract\Base\BaseRegistrationOTP.cs"
"D:\hcuepharma_Loyalty_Start_May2018\hcuepharma\API\HQue.Contract\Base\BaseReminderProduct.cs"
"D:\hcuepharma_Loyalty_Start_May2018\hcuepharma\API\HQue.Contract\Base\BaseReminderRemark.cs"
"D:\hcuepharma_Loyalty_Start_May2018\hcuepharma\API\HQue.Contract\Base\BaseReplicationData.cs"
"D:\hcuepharma_Loyalty_Start_May2018\hcuepharma\API\HQue.Contract\Base\BaseRequirement.cs"
"D:\hcuepharma_Loyalty_Start_May2018\hcuepharma\API\HQue.Contract\Base\BaseSales.cs"
"D:\hcuepharma_Loyalty_Start_May2018\hcuepharma\API\HQue.Contract\Base\BaseSalesBatchPopUpSettings.cs"
"D:\hcuepharma_Loyalty_Start_May2018\hcuepharma\API\HQue.Contract\Base\BaseSaleSettings.cs"
"D:\hcuepharma_Loyalty_Start_May2018\hcuepharma\API\HQue.Contract\Base\BaseSalesItem.cs"
"D:\hcuepharma_Loyalty_Start_May2018\hcuepharma\API\HQue.Contract\Base\BaseSalesItemAudit.cs"
"D:\hcuepharma_Loyalty_Start_May2018\hcuepharma\API\HQue.Contract\Base\BaseSalesOrderEstimate.cs"
"D:\hcuepharma_Loyalty_Start_May2018\hcuepharma\API\HQue.Contract\Base\BaseSalesOrderEstimateItem.cs"
"D:\hcuepharma_Loyalty_Start_May2018\hcuepharma\API\HQue.Contract\Base\BaseSalesPayment.cs"
"D:\hcuepharma_Loyalty_Start_May2018\hcuepharma\API\HQue.Contract\Base\BaseSalesReturn.cs"
"D:\hcuepharma_Loyalty_Start_May2018\hcuepharma\API\HQue.Contract\Base\BaseSalesReturnItem.cs"
"D:\hcuepharma_Loyalty_Start_May2018\hcuepharma\API\HQue.Contract\Base\BaseSalesReturnItemAudit.cs"
"D:\hcuepharma_Loyalty_Start_May2018\hcuepharma\API\HQue.Contract\Base\BaseSalesTemplate.cs"
"D:\hcuepharma_Loyalty_Start_May2018\hcuepharma\API\HQue.Contract\Base\BaseSalesTemplateItem.cs"
"D:\hcuepharma_Loyalty_Start_May2018\hcuepharma\API\HQue.Contract\Base\BaseSalesType.cs"
"D:\hcuepharma_Loyalty_Start_May2018\hcuepharma\API\HQue.Contract\Base\BaseSchedulerLog.cs"
"D:\hcuepharma_Loyalty_Start_May2018\hcuepharma\API\HQue.Contract\Base\BaseSelfConsumption.cs"
"D:\hcuepharma_Loyalty_Start_May2018\hcuepharma\API\HQue.Contract\Base\BaseSettings.cs"
"D:\hcuepharma_Loyalty_Start_May2018\hcuepharma\API\HQue.Contract\Base\BaseSettlements.cs"
"D:\hcuepharma_Loyalty_Start_May2018\hcuepharma\API\HQue.Contract\Base\BaseSmsConfiguration.cs"
"D:\hcuepharma_Loyalty_Start_May2018\hcuepharma\API\HQue.Contract\Base\BaseSmsLog.cs"
"D:\hcuepharma_Loyalty_Start_May2018\hcuepharma\API\HQue.Contract\Base\BaseSmsSettings.cs"
"D:\hcuepharma_Loyalty_Start_May2018\hcuepharma\API\HQue.Contract\Base\BaseState.cs"
"D:\hcuepharma_Loyalty_Start_May2018\hcuepharma\API\HQue.Contract\Base\BaseStockAdjustment.cs"
"D:\hcuepharma_Loyalty_Start_May2018\hcuepharma\API\HQue.Contract\Base\BaseStockLedgerUpdateHistory.cs"
"D:\hcuepharma_Loyalty_Start_May2018\hcuepharma\API\HQue.Contract\Base\BaseStockLedgerUpdateHistoryItem.cs"
"D:\hcuepharma_Loyalty_Start_May2018\hcuepharma\API\HQue.Contract\Base\BaseStockMovement.cs"
"D:\hcuepharma_Loyalty_Start_May2018\hcuepharma\API\HQue.Contract\Base\BaseStockTransfer.cs"
"D:\hcuepharma_Loyalty_Start_May2018\hcuepharma\API\HQue.Contract\Base\BaseStockTransferItem.cs"
"D:\hcuepharma_Loyalty_Start_May2018\hcuepharma\API\HQue.Contract\Base\BaseStockValueReport.cs"
"D:\hcuepharma_Loyalty_Start_May2018\hcuepharma\API\HQue.Contract\Base\BaseSyncData.cs"
"D:\hcuepharma_Loyalty_Start_May2018\hcuepharma\API\HQue.Contract\Base\BaseSyncDataSeed.cs"
"D:\hcuepharma_Loyalty_Start_May2018\hcuepharma\API\HQue.Contract\Base\BaseSyncPendingQuery.cs"
"D:\hcuepharma_Loyalty_Start_May2018\hcuepharma\API\HQue.Contract\Base\BaseSyncSettings.cs"
"D:\hcuepharma_Loyalty_Start_May2018\hcuepharma\API\HQue.Contract\Base\BaseTaxSeriesItem.cs"
"D:\hcuepharma_Loyalty_Start_May2018\hcuepharma\API\HQue.Contract\Base\BaseTaxValues.cs"
"D:\hcuepharma_Loyalty_Start_May2018\hcuepharma\API\HQue.Contract\Base\BaseTemplatePurchaseChildMaster.cs"
"D:\hcuepharma_Loyalty_Start_May2018\hcuepharma\API\HQue.Contract\Base\BaseTemplatePurchaseChildMasterSettings.cs"
"D:\hcuepharma_Loyalty_Start_May2018\hcuepharma\API\HQue.Contract\Base\BaseTemplatePurchaseMaster.cs"
"D:\hcuepharma_Loyalty_Start_May2018\hcuepharma\API\HQue.Contract\Base\BasetempProductStock.cs"
"D:\hcuepharma_Loyalty_Start_May2018\hcuepharma\API\HQue.Contract\Base\BasetempSales.cs"
"D:\hcuepharma_Loyalty_Start_May2018\hcuepharma\API\HQue.Contract\Base\BasetempSalesItem.cs"
"D:\hcuepharma_Loyalty_Start_May2018\hcuepharma\API\HQue.Contract\Base\BasetempSalesReturn_30Nov2016.cs"
"D:\hcuepharma_Loyalty_Start_May2018\hcuepharma\API\HQue.Contract\Base\BaseTempVendorPurchaseItem.cs"
"D:\hcuepharma_Loyalty_Start_May2018\hcuepharma\API\HQue.Contract\Base\Basetmp_VendorPurchase_error.cs"
"D:\hcuepharma_Loyalty_Start_May2018\hcuepharma\API\HQue.Contract\Base\BaseTool.cs"
"D:\hcuepharma_Loyalty_Start_May2018\hcuepharma\API\HQue.Contract\Base\BaseTransferSettings.cs"
"D:\hcuepharma_Loyalty_Start_May2018\hcuepharma\API\HQue.Contract\Base\BaseUserAccess.cs"
"D:\hcuepharma_Loyalty_Start_May2018\hcuepharma\API\HQue.Contract\Base\BaseUserReminder.cs"
"D:\hcuepharma_Loyalty_Start_May2018\hcuepharma\API\HQue.Contract\Base\BaseVendor.cs"
"D:\hcuepharma_Loyalty_Start_May2018\hcuepharma\API\HQue.Contract\Base\BaseVendorOrder.cs"
"D:\hcuepharma_Loyalty_Start_May2018\hcuepharma\API\HQue.Contract\Base\BaseVendorOrderItem.cs"
"D:\hcuepharma_Loyalty_Start_May2018\hcuepharma\API\HQue.Contract\Base\BaseVendorPurchase.cs"
"D:\hcuepharma_Loyalty_Start_May2018\hcuepharma\API\HQue.Contract\Base\BaseVendorPurchaseFormula.cs"
"D:\hcuepharma_Loyalty_Start_May2018\hcuepharma\API\HQue.Contract\Base\BaseVendorPurchaseItem.cs"
"D:\hcuepharma_Loyalty_Start_May2018\hcuepharma\API\HQue.Contract\Base\BaseVendorPurchaseItemAudit.cs"
"D:\hcuepharma_Loyalty_Start_May2018\hcuepharma\API\HQue.Contract\Base\BaseVendorReturn.cs"
"D:\hcuepharma_Loyalty_Start_May2018\hcuepharma\API\HQue.Contract\Base\BaseVendorReturnItem.cs"
"D:\hcuepharma_Loyalty_Start_May2018\hcuepharma\API\HQue.Contract\Base\BaseVoucher.cs"
"D:\hcuepharma_Loyalty_Start_May2018\hcuepharma\API\HQue.Contract\Extension\NumberToText.cs"
"D:\hcuepharma_Loyalty_Start_May2018\hcuepharma\API\HQue.Contract\Infrastructure\PagerContract.cs"
"D:\hcuepharma_Loyalty_Start_May2018\hcuepharma\API\HQue.Contract\Infrastructure\PagerContractInventory.cs"
"D:\hcuepharma_Loyalty_Start_May2018\hcuepharma\API\HQue.Contract\Infrastructure\Response.cs"
"D:\hcuepharma_Loyalty_Start_May2018\hcuepharma\API\HQue.Contract\Infrastructure\Accounts\CustomerPayment.cs"
"D:\hcuepharma_Loyalty_Start_May2018\hcuepharma\API\HQue.Contract\Infrastructure\Accounts\Payment.cs"
"D:\hcuepharma_Loyalty_Start_May2018\hcuepharma\API\HQue.Contract\Infrastructure\Accounts\PettyCash.cs"
"D:\hcuepharma_Loyalty_Start_May2018\hcuepharma\API\HQue.Contract\Infrastructure\Accounts\PettyCashDtl.cs"
"D:\hcuepharma_Loyalty_Start_May2018\hcuepharma\API\HQue.Contract\Infrastructure\Accounts\PettyCashHdr.cs"
"D:\hcuepharma_Loyalty_Start_May2018\hcuepharma\API\HQue.Contract\Infrastructure\Accounts\PettyCashSettings.cs"
"D:\hcuepharma_Loyalty_Start_May2018\hcuepharma\API\HQue.Contract\Infrastructure\Accounts\Settlements.cs"
"D:\hcuepharma_Loyalty_Start_May2018\hcuepharma\API\HQue.Contract\Infrastructure\Accounts\Voucher.cs"
"D:\hcuepharma_Loyalty_Start_May2018\hcuepharma\API\HQue.Contract\Infrastructure\Audits\VendorPurchaseItemAudit.cs"
"D:\hcuepharma_Loyalty_Start_May2018\hcuepharma\API\HQue.Contract\Infrastructure\Common\Either.cs"
"D:\hcuepharma_Loyalty_Start_May2018\hcuepharma\API\HQue.Contract\Infrastructure\Communication\CommunicationLog.cs"
"D:\hcuepharma_Loyalty_Start_May2018\hcuepharma\API\HQue.Contract\Infrastructure\Communication\CustomerSms.cs"
"D:\hcuepharma_Loyalty_Start_May2018\hcuepharma\API\HQue.Contract\Infrastructure\Dashboard\BarGraph.cs"
"D:\hcuepharma_Loyalty_Start_May2018\hcuepharma\API\HQue.Contract\Infrastructure\Dashboard\getAllPharmaItem.cs"
"D:\hcuepharma_Loyalty_Start_May2018\hcuepharma\API\HQue.Contract\Infrastructure\Dashboard\NameValue.cs"
"D:\hcuepharma_Loyalty_Start_May2018\hcuepharma\API\HQue.Contract\Infrastructure\Estimates\Estimate.cs"
"D:\hcuepharma_Loyalty_Start_May2018\hcuepharma\API\HQue.Contract\Infrastructure\Estimates\EstimateItem.cs"
"D:\hcuepharma_Loyalty_Start_May2018\hcuepharma\API\HQue.Contract\Infrastructure\Inventory\BatchListSettings.cs"
"D:\hcuepharma_Loyalty_Start_May2018\hcuepharma\API\HQue.Contract\Infrastructure\Inventory\BranchWiseStock.cs"
"D:\hcuepharma_Loyalty_Start_May2018\hcuepharma\API\HQue.Contract\Infrastructure\Inventory\CardTypeSettings.cs"
"D:\hcuepharma_Loyalty_Start_May2018\hcuepharma\API\HQue.Contract\Infrastructure\Inventory\DcVendorPurchaseItem.cs"
"D:\hcuepharma_Loyalty_Start_May2018\hcuepharma\API\HQue.Contract\Infrastructure\Inventory\DiscountRules.cs"
"D:\hcuepharma_Loyalty_Start_May2018\hcuepharma\API\HQue.Contract\Infrastructure\Inventory\DomainValues.cs"
"D:\hcuepharma_Loyalty_Start_May2018\hcuepharma\API\HQue.Contract\Infrastructure\Inventory\DraftVendorPurchase.cs"
"D:\hcuepharma_Loyalty_Start_May2018\hcuepharma\API\HQue.Contract\Infrastructure\Inventory\DraftVendorPurchaseItem.cs"
"D:\hcuepharma_Loyalty_Start_May2018\hcuepharma\API\HQue.Contract\Infrastructure\Inventory\IInvoice.cs"
"D:\hcuepharma_Loyalty_Start_May2018\hcuepharma\API\HQue.Contract\Infrastructure\Inventory\IInvoiceItem.cs"
"D:\hcuepharma_Loyalty_Start_May2018\hcuepharma\API\HQue.Contract\Infrastructure\Inventory\InventoryReOrder.cs"
"D:\hcuepharma_Loyalty_Start_May2018\hcuepharma\API\HQue.Contract\Infrastructure\Inventory\InventorySmsSettings.cs"
"D:\hcuepharma_Loyalty_Start_May2018\hcuepharma\API\HQue.Contract\Infrastructure\Inventory\InventoryUpdateHistory.cs"
"D:\hcuepharma_Loyalty_Start_May2018\hcuepharma\API\HQue.Contract\Infrastructure\Inventory\InvoiceVM.cs"
"D:\hcuepharma_Loyalty_Start_May2018\hcuepharma\API\HQue.Contract\Infrastructure\Inventory\JournalReport.cs"
"D:\hcuepharma_Loyalty_Start_May2018\hcuepharma\API\HQue.Contract\Infrastructure\Inventory\MissedDetail.cs"
"D:\hcuepharma_Loyalty_Start_May2018\hcuepharma\API\HQue.Contract\Infrastructure\Inventory\MissedOrder.cs"
"D:\hcuepharma_Loyalty_Start_May2018\hcuepharma\API\HQue.Contract\Infrastructure\Inventory\OrderBasedSales.cs"
"D:\hcuepharma_Loyalty_Start_May2018\hcuepharma\API\HQue.Contract\Infrastructure\Inventory\PhysicalStockHistory.cs"
"D:\hcuepharma_Loyalty_Start_May2018\hcuepharma\API\HQue.Contract\Infrastructure\Inventory\ProductStock.cs"
"D:\hcuepharma_Loyalty_Start_May2018\hcuepharma\API\HQue.Contract\Infrastructure\Inventory\PurchaseConsolidatedGst.cs"
"D:\hcuepharma_Loyalty_Start_May2018\hcuepharma\API\HQue.Contract\Infrastructure\Inventory\PurchaseDetails.cs"
"D:\hcuepharma_Loyalty_Start_May2018\hcuepharma\API\HQue.Contract\Infrastructure\Inventory\PurchaseReportTally.cs"
"D:\hcuepharma_Loyalty_Start_May2018\hcuepharma\API\HQue.Contract\Infrastructure\Inventory\PurchaseReturnConsolidatedGst.cs"
"D:\hcuepharma_Loyalty_Start_May2018\hcuepharma\API\HQue.Contract\Infrastructure\Inventory\PurchaseReturnReportTally.cs"
"D:\hcuepharma_Loyalty_Start_May2018\hcuepharma\API\HQue.Contract\Infrastructure\Inventory\ReturnInvoice.cs"
"D:\hcuepharma_Loyalty_Start_May2018\hcuepharma\API\HQue.Contract\Infrastructure\Inventory\Sales.cs"
"D:\hcuepharma_Loyalty_Start_May2018\hcuepharma\API\HQue.Contract\Infrastructure\Inventory\SalesCoordinateGst.cs"
"D:\hcuepharma_Loyalty_Start_May2018\hcuepharma\API\HQue.Contract\Infrastructure\Inventory\SalesCoordinateGstReturn.cs"
"D:\hcuepharma_Loyalty_Start_May2018\hcuepharma\API\HQue.Contract\Infrastructure\Inventory\SalesItem.cs"
"D:\hcuepharma_Loyalty_Start_May2018\hcuepharma\API\HQue.Contract\Infrastructure\Inventory\SalesItemAudit.cs"
"D:\hcuepharma_Loyalty_Start_May2018\hcuepharma\API\HQue.Contract\Infrastructure\Inventory\SalesOrderEstimate.cs"
"D:\hcuepharma_Loyalty_Start_May2018\hcuepharma\API\HQue.Contract\Infrastructure\Inventory\SalesOrderEstimateItem.cs"
"D:\hcuepharma_Loyalty_Start_May2018\hcuepharma\API\HQue.Contract\Infrastructure\Inventory\SalesPayment.cs"
"D:\hcuepharma_Loyalty_Start_May2018\hcuepharma\API\HQue.Contract\Infrastructure\Inventory\SalesReportTally.cs"
"D:\hcuepharma_Loyalty_Start_May2018\hcuepharma\API\HQue.Contract\Infrastructure\Inventory\SalesReturn.cs"
"D:\hcuepharma_Loyalty_Start_May2018\hcuepharma\API\HQue.Contract\Infrastructure\Inventory\SalesReturnItem.cs"
"D:\hcuepharma_Loyalty_Start_May2018\hcuepharma\API\HQue.Contract\Infrastructure\Inventory\SalesReturnItemAudit.cs"
"D:\hcuepharma_Loyalty_Start_May2018\hcuepharma\API\HQue.Contract\Infrastructure\Inventory\SalesReturnReportTally.cs"
"D:\hcuepharma_Loyalty_Start_May2018\hcuepharma\API\HQue.Contract\Infrastructure\Inventory\SalesTemplate.cs"
"D:\hcuepharma_Loyalty_Start_May2018\hcuepharma\API\HQue.Contract\Infrastructure\Inventory\SalesTemplateItem.cs"
"D:\hcuepharma_Loyalty_Start_May2018\hcuepharma\API\HQue.Contract\Infrastructure\Inventory\SalesType.cs"
"D:\hcuepharma_Loyalty_Start_May2018\hcuepharma\API\HQue.Contract\Infrastructure\Inventory\SelfConsumption.cs"
"D:\hcuepharma_Loyalty_Start_May2018\hcuepharma\API\HQue.Contract\Infrastructure\Inventory\SmsLog.cs"
"D:\hcuepharma_Loyalty_Start_May2018\hcuepharma\API\HQue.Contract\Infrastructure\Inventory\StockAdjustment.cs"
"D:\hcuepharma_Loyalty_Start_May2018\hcuepharma\API\HQue.Contract\Infrastructure\Inventory\StockLedger.cs"
"D:\hcuepharma_Loyalty_Start_May2018\hcuepharma\API\HQue.Contract\Infrastructure\Inventory\StockTransfer.cs"
"D:\hcuepharma_Loyalty_Start_May2018\hcuepharma\API\HQue.Contract\Infrastructure\Inventory\StockTransferItem.cs"
"D:\hcuepharma_Loyalty_Start_May2018\hcuepharma\API\HQue.Contract\Infrastructure\Inventory\SupplierFilter.cs"
"D:\hcuepharma_Loyalty_Start_May2018\hcuepharma\API\HQue.Contract\Infrastructure\Inventory\TaxValues.cs"
"D:\hcuepharma_Loyalty_Start_May2018\hcuepharma\API\HQue.Contract\Infrastructure\Inventory\TemplatePurchaseChildMaster.cs"
"D:\hcuepharma_Loyalty_Start_May2018\hcuepharma\API\HQue.Contract\Infrastructure\Inventory\TemplatePurchaseChildMasterSettings.cs"
"D:\hcuepharma_Loyalty_Start_May2018\hcuepharma\API\HQue.Contract\Infrastructure\Inventory\TemplatePurchaseMaster.cs"
"D:\hcuepharma_Loyalty_Start_May2018\hcuepharma\API\HQue.Contract\Infrastructure\Inventory\TempVendorPurchaseItem.cs"
"D:\hcuepharma_Loyalty_Start_May2018\hcuepharma\API\HQue.Contract\Infrastructure\Inventory\VendorOrder.cs"
"D:\hcuepharma_Loyalty_Start_May2018\hcuepharma\API\HQue.Contract\Infrastructure\Inventory\VendorOrderItem.cs"
"D:\hcuepharma_Loyalty_Start_May2018\hcuepharma\API\HQue.Contract\Infrastructure\Inventory\VendorPurchase.cs"
"D:\hcuepharma_Loyalty_Start_May2018\hcuepharma\API\HQue.Contract\Infrastructure\Inventory\VendorPurchaseItem.cs"
"D:\hcuepharma_Loyalty_Start_May2018\hcuepharma\API\HQue.Contract\Infrastructure\Inventory\VendorPurchaseReturn.cs"
"D:\hcuepharma_Loyalty_Start_May2018\hcuepharma\API\HQue.Contract\Infrastructure\Inventory\VendorPurchaseReturnItem.cs"
"D:\hcuepharma_Loyalty_Start_May2018\hcuepharma\API\HQue.Contract\Infrastructure\Leads\Leads.cs"
"D:\hcuepharma_Loyalty_Start_May2018\hcuepharma\API\HQue.Contract\Infrastructure\Leads\LeadsProduct.cs"
"D:\hcuepharma_Loyalty_Start_May2018\hcuepharma\API\HQue.Contract\Infrastructure\Master\AlternateVendorProduct.cs"
"D:\hcuepharma_Loyalty_Start_May2018\hcuepharma\API\HQue.Contract\Infrastructure\Master\DefaultDoctor.cs"
"D:\hcuepharma_Loyalty_Start_May2018\hcuepharma\API\HQue.Contract\Infrastructure\Master\Doctor.cs"
"D:\hcuepharma_Loyalty_Start_May2018\hcuepharma\API\HQue.Contract\Infrastructure\Master\DrugList.cs"
"D:\hcuepharma_Loyalty_Start_May2018\hcuepharma\API\HQue.Contract\Infrastructure\Master\KindProductMaster.cs"
"D:\hcuepharma_Loyalty_Start_May2018\hcuepharma\API\HQue.Contract\Infrastructure\Master\Patient.cs"
"D:\hcuepharma_Loyalty_Start_May2018\hcuepharma\API\HQue.Contract\Infrastructure\Master\Product.cs"
"D:\hcuepharma_Loyalty_Start_May2018\hcuepharma\API\HQue.Contract\Infrastructure\Master\ProductInstance.cs"
"D:\hcuepharma_Loyalty_Start_May2018\hcuepharma\API\HQue.Contract\Infrastructure\Master\ProductMaster.cs"
"D:\hcuepharma_Loyalty_Start_May2018\hcuepharma\API\HQue.Contract\Infrastructure\Master\State.cs"
"D:\hcuepharma_Loyalty_Start_May2018\hcuepharma\API\HQue.Contract\Infrastructure\Master\Vendor.cs"
"D:\hcuepharma_Loyalty_Start_May2018\hcuepharma\API\HQue.Contract\Infrastructure\Master\VendorPurchaseFormula.cs"
"D:\hcuepharma_Loyalty_Start_May2018\hcuepharma\API\HQue.Contract\Infrastructure\Misc\DateRange.cs"
"D:\hcuepharma_Loyalty_Start_May2018\hcuepharma\API\HQue.Contract\Infrastructure\Reminder\CustomerReminder.cs"
"D:\hcuepharma_Loyalty_Start_May2018\hcuepharma\API\HQue.Contract\Infrastructure\Reminder\IReminder.cs"
"D:\hcuepharma_Loyalty_Start_May2018\hcuepharma\API\HQue.Contract\Infrastructure\Reminder\IReminderItem.cs"
"D:\hcuepharma_Loyalty_Start_May2018\hcuepharma\API\HQue.Contract\Infrastructure\Reminder\ReminderProduct.cs"
"D:\hcuepharma_Loyalty_Start_May2018\hcuepharma\API\HQue.Contract\Infrastructure\Reminder\ReminderRemark.cs"
"D:\hcuepharma_Loyalty_Start_May2018\hcuepharma\API\HQue.Contract\Infrastructure\Reminder\UserReminder.cs"
"D:\hcuepharma_Loyalty_Start_May2018\hcuepharma\API\HQue.Contract\Infrastructure\Reminder\UserReminderType.cs"
"D:\hcuepharma_Loyalty_Start_May2018\hcuepharma\API\HQue.Contract\Infrastructure\Replication\InstanceClient.cs"
"D:\hcuepharma_Loyalty_Start_May2018\hcuepharma\API\HQue.Contract\Infrastructure\Replication\ReplicationEntity.cs"
"D:\hcuepharma_Loyalty_Start_May2018\hcuepharma\API\HQue.Contract\Infrastructure\Replication\SyncRequest.cs"
"D:\hcuepharma_Loyalty_Start_May2018\hcuepharma\API\HQue.Contract\Infrastructure\Replication\SyncRequestEntity.cs"
"D:\hcuepharma_Loyalty_Start_May2018\hcuepharma\API\HQue.Contract\Infrastructure\Replication\SyncResponse.cs"
"D:\hcuepharma_Loyalty_Start_May2018\hcuepharma\API\HQue.Contract\Infrastructure\Replication\SyncResponseEntity.cs"
"D:\hcuepharma_Loyalty_Start_May2018\hcuepharma\API\HQue.Contract\Infrastructure\Reports\CustomDevReport.cs"
"D:\hcuepharma_Loyalty_Start_May2018\hcuepharma\API\HQue.Contract\Infrastructure\Reports\CustomReport.cs"
"D:\hcuepharma_Loyalty_Start_May2018\hcuepharma\API\HQue.Contract\Infrastructure\Reports\GSTReport.cs"
"D:\hcuepharma_Loyalty_Start_May2018\hcuepharma\API\HQue.Contract\Infrastructure\Reports\ProductPurchaseSalesVM.cs"
"D:\hcuepharma_Loyalty_Start_May2018\hcuepharma\API\HQue.Contract\Infrastructure\Reports\SalesSummaryDayWise.cs"
"D:\hcuepharma_Loyalty_Start_May2018\hcuepharma\API\HQue.Contract\Infrastructure\Reports\StockInventory.cs"
"D:\hcuepharma_Loyalty_Start_May2018\hcuepharma\API\HQue.Contract\Infrastructure\Reports\StockMovement.cs"
"D:\hcuepharma_Loyalty_Start_May2018\hcuepharma\API\HQue.Contract\Infrastructure\Reports\StockValueReport.cs"
"D:\hcuepharma_Loyalty_Start_May2018\hcuepharma\API\HQue.Contract\Infrastructure\Reports\VendorpurchaseReturnReport.cs"
"D:\hcuepharma_Loyalty_Start_May2018\hcuepharma\API\HQue.Contract\Infrastructure\Settings\BarcodePrnDesign.cs"
"D:\hcuepharma_Loyalty_Start_May2018\hcuepharma\API\HQue.Contract\Infrastructure\Settings\BarcodeProfile.cs"
"D:\hcuepharma_Loyalty_Start_May2018\hcuepharma\API\HQue.Contract\Infrastructure\Settings\BillPrintSettings.cs"
"D:\hcuepharma_Loyalty_Start_May2018\hcuepharma\API\HQue.Contract\Infrastructure\Settings\CustomerIDSeriesItem.cs"
"D:\hcuepharma_Loyalty_Start_May2018\hcuepharma\API\HQue.Contract\Infrastructure\Settings\CustomSettingsDetail.cs"
"D:\hcuepharma_Loyalty_Start_May2018\hcuepharma\API\HQue.Contract\Infrastructure\Settings\InventorySettings.cs"
"D:\hcuepharma_Loyalty_Start_May2018\hcuepharma\API\HQue.Contract\Infrastructure\Settings\InvoiceSeries.cs"
"D:\hcuepharma_Loyalty_Start_May2018\hcuepharma\API\HQue.Contract\Infrastructure\Settings\InvoiceSeriesItem.cs"
"D:\hcuepharma_Loyalty_Start_May2018\hcuepharma\API\HQue.Contract\Infrastructure\Settings\LoyaltyPointSettings.cs"
"D:\hcuepharma_Loyalty_Start_May2018\hcuepharma\API\HQue.Contract\Infrastructure\Settings\LoyaltyProductPoints.cs"
"D:\hcuepharma_Loyalty_Start_May2018\hcuepharma\API\HQue.Contract\Infrastructure\Settings\OrderSettings.cs"
"D:\hcuepharma_Loyalty_Start_May2018\hcuepharma\API\HQue.Contract\Infrastructure\Settings\ProductSearchSettings.cs"
"D:\hcuepharma_Loyalty_Start_May2018\hcuepharma\API\HQue.Contract\Infrastructure\Settings\PurchaseSettings.cs"
"D:\hcuepharma_Loyalty_Start_May2018\hcuepharma\API\HQue.Contract\Infrastructure\Settings\Requirements.cs"
"D:\hcuepharma_Loyalty_Start_May2018\hcuepharma\API\HQue.Contract\Infrastructure\Settings\SalesBatchPopUpSettings.cs"
"D:\hcuepharma_Loyalty_Start_May2018\hcuepharma\API\HQue.Contract\Infrastructure\Settings\SaleSettings.cs"
"D:\hcuepharma_Loyalty_Start_May2018\hcuepharma\API\HQue.Contract\Infrastructure\Settings\Setting.cs"
"D:\hcuepharma_Loyalty_Start_May2018\hcuepharma\API\HQue.Contract\Infrastructure\Settings\SmsConfiguration.cs"
"D:\hcuepharma_Loyalty_Start_May2018\hcuepharma\API\HQue.Contract\Infrastructure\Settings\SmsSettings.cs"
"D:\hcuepharma_Loyalty_Start_May2018\hcuepharma\API\HQue.Contract\Infrastructure\Settings\StockLedgerUpdateHistory.cs"
"D:\hcuepharma_Loyalty_Start_May2018\hcuepharma\API\HQue.Contract\Infrastructure\Settings\StockLedgerUpdateHistoryItem.cs"
"D:\hcuepharma_Loyalty_Start_May2018\hcuepharma\API\HQue.Contract\Infrastructure\Settings\TaxseriesItem.cs"
"D:\hcuepharma_Loyalty_Start_May2018\hcuepharma\API\HQue.Contract\Infrastructure\Settings\Tools.cs"
"D:\hcuepharma_Loyalty_Start_May2018\hcuepharma\API\HQue.Contract\Infrastructure\Settings\TransferSettings.cs"
"D:\hcuepharma_Loyalty_Start_May2018\hcuepharma\API\HQue.Contract\Infrastructure\Setup\Account.cs"
"D:\hcuepharma_Loyalty_Start_May2018\hcuepharma\API\HQue.Contract\Infrastructure\Setup\Instance.cs"
"D:\hcuepharma_Loyalty_Start_May2018\hcuepharma\API\HQue.Contract\Infrastructure\Setup\PharmacyPayment.cs"
"D:\hcuepharma_Loyalty_Start_May2018\hcuepharma\API\HQue.Contract\Infrastructure\Setup\PharmacyTiming.cs"
"D:\hcuepharma_Loyalty_Start_May2018\hcuepharma\API\HQue.Contract\Infrastructure\Setup\PharmacyUploads.cs"
"D:\hcuepharma_Loyalty_Start_May2018\hcuepharma\API\HQue.Contract\Infrastructure\Setup\Registration.cs"
"D:\hcuepharma_Loyalty_Start_May2018\hcuepharma\API\HQue.Contract\Infrastructure\UserAccount\HQueUser.cs"
"D:\hcuepharma_Loyalty_Start_May2018\hcuepharma\API\HQue.Contract\Infrastructure\UserAccount\LoginHistory.cs"
"D:\hcuepharma_Loyalty_Start_May2018\hcuepharma\API\HQue.Contract\Infrastructure\UserAccount\UserAccess.cs"
