{
  "version": "1.0.0-*",

  "dependencies": {
    "Dapper": "1.50.2",
    "HQue.Contract": "1.0.0-*",
    "Microsoft.Data.Sqlite": "1.0.0",
    "NETStandard.Library": "1.6.0",
    "System.Data.Common": "4.1.0",
    "System.Data.SqlClient": "4.1.0",
    "Utilities": "1.0.0-*"
  },

  "frameworks": {
    "netstandard1.6": {
      "imports": "dnxcore50",
      "dependencies": {
        "System.Runtime": "4.1.0",
      },
      "frameworkAssemblies": {
        
      }
    }
  }
}
